{
    "lang": "arag",
    "year": 2021,
    "month": 8,
    "day": 22,
    "title": "22 d'agosto de 1945",
    "body": " Muere la fisiologa Ida Henrietta Hyde. Va desenrollar un microelectrodo prou potent como pa estimular teixius y pro chicot como pa extrayer teixiu d'una celula",
    "eventYear": "1945",
    "image": "https://calendario-cientifico-escolar.github.io/images/personajes/234.png"
}