{
    "lang": "arag",
    "year": 2021,
    "month": 8,
    "day": 29,
    "title": "29 d'agosto de 2019",
    "body": " Lo mayor estudio realizau pa esbrinar la importancia d'os chens en a conducta sexual confirma que no i hai nom\u00e1s un chen d'a homosexualidat y posa de manifiesto la complexidat d'a sexualidat humana",
    "eventYear": "2019",
    "image": "https://calendario-cientifico-escolar.github.io/images/personajes/241.png"
}