{
    "lang": "arag",
    "year": 2021,
    "month": 7,
    "day": 4,
    "title": "4 de chuliol de 2019",
    "body": " Se presenta PRISMA en o Museu Nacional de Sciencias Naturals de Madrid. PRISMA ye l'Asociaci\u00f3n pa la Diversidat Afectivo-sexual y de Chenero en Sciencia, Tecnoloch\u00eda y Innovaci\u00f3n. Lo suyo obchectivo ye aumentar la visibilidat d'o colectivo LGTBIQA+ en o mundo scientifico",
    "eventYear": "2019",
    "image": "https://calendario-cientifico-escolar.github.io/images/personajes/185.png"
}