{
    "lang": "arag",
    "year": 2021,
    "month": 7,
    "day": 6,
    "title": "6 de chuliol de 1885",
    "body": " Louis Pasteur administra la vacuna d'a rabia a Josef Meister, un nino de 9 anyos que heba estau mosegau per un can rabioso. Fue una actuaci\u00f3n de risgo perque Pasteur no teneba la titulaci\u00f3n de medico y la vacuna no yera encara aprebada. Manimenos, gracias a ixo, va salvar la vida de Josef",
    "eventYear": "1885",
    "image": "https://calendario-cientifico-escolar.github.io/images/personajes/187.png"
}