{
    "lang": "cat",
    "year": 2021,
    "month": 12,
    "day": 24,
    "title": "24 de desembre de 1913",
    "body": " Va n\u00e9ixer la qu\u00edmica Miriam Michael Stimson. Va desenvolupar la t\u00e8cnica de disc de bromur de potassi. Aquest m\u00e8tode de preparaci\u00f3 de les mostres millora la seva an\u00e0lisi mitjan\u00e7ant espectrosc\u00f2pia infraroja",
    "eventYear": "1913",
    "image": "https://calendario-cientifico-escolar.github.io/images/personajes/358.png"
}