{
    "lang": "cat",
    "year": 2021,
    "month": 12,
    "day": 25,
    "title": "25 de desembre de 1901",
    "body": " Va n\u00e9ixer Richard Shope, l'especialista en patologia animal que va a\u00efllar per primera vegada un influenzavirus. Aquests virus causen la grip en aus i mam\u00edfers (incloent-hi els humans)",
    "eventYear": "1901",
    "image": "https://calendario-cientifico-escolar.github.io/images/personajes/359.png"
}