{
    "lang": "cat",
    "year": 2021,
    "month": 12,
    "day": 27,
    "title": "27 de desembre de 1822",
    "body": " Va n\u00e9ixer el qu\u00edmic i microbi\u00f2leg Louis Pasteur. Va demostrar que la fermentaci\u00f3 era causada per microorganismes i va inventar la pasteuritzaci\u00f3. Aquest m\u00e8tode permet el control dels microbis en l\u00edquids, com la llet",
    "eventYear": "1822",
    "image": "https://calendario-cientifico-escolar.github.io/images/personajes/361.png"
}