{
    "lang": "cat",
    "year": 2021,
    "month": 12,
    "day": 7,
    "title": "7 de desembre de 1949",
    "body": " La mestra \u00c1ngela Ruiz Robles va patentar l'Enciclop\u00e8dia Mec\u00e0nica. Aquest invent es considera el precursor del llibre electr\u00f2nic. Inclo\u00efa una forta perspectiva d'atenci\u00f3 a la diversitat, amb la possibilitat de muntar \u00e0udios i lupes per a l'alumnat amb problemes d'acc\u00e9s",
    "eventYear": "1949",
    "image": "https://calendario-cientifico-escolar.github.io/images/personajes/341.png"
}