{
    "lang": "gal",
    "year": 2021,
    "month": 8,
    "day": 10,
    "title": "10 de agosto de 2017",
    "body": " Un equipo do IGME obtivo a primeira secuencia de imaxes ac\u00fasticas das plumas volc\u00e1nicas que se emiten durante a erupci\u00f3n dun volc\u00e1n submarino. O estudo realizouse preto da illa de El Hierro",
    "eventYear": "2017",
    "image": "https://calendario-cientifico-escolar.github.io/images/personajes/222.png"
}