{
    "lang": "gal",
    "year": 2021,
    "month": 7,
    "day": 4,
    "title": "4 de xullo de 2019",
    "body": " Presentouse PRISMA no Museo Nacional de Ciencias Naturais de Madrid. PRISMA \u00e9 a Asociaci\u00f3n para a Diversidade Afectivo-Sexual e de X\u00e9nero en Ciencia, Tecnolox\u00eda e Innovaci\u00f3n. O seu obxectivo \u00e9 aumentar a visibilidade do colectivo LGTBIQA+ no mundo cient\u00edfico",
    "eventYear": "2019",
    "image": "https://calendario-cientifico-escolar.github.io/images/personajes/185.png"
}