{
    "lang": "gal",
    "year": 2021,
    "month": 7,
    "day": 6,
    "title": "6 de xullo de 1885",
    "body": " Louis Pasteur administrou a vacina da rabia a Josef Meister, un neno de 9 anos ao que trabara un can rabioso. Foi unha actuaci\u00f3n de risco porque Pasteur non ti\u00f1a a titulaci\u00f3n de m\u00e9dico e a vacina non estaba a\u00ednda aprobada. No entanto, grazas a isto, salvou a vida de Josef",
    "eventYear": "1885",
    "image": "https://calendario-cientifico-escolar.github.io/images/personajes/187.png"
}