{
    "lang": "en",
    "year": 2021,
    "month": 11,
    "day": 11,
    "title": "November 11, 1930",
    "body": " Physicist Mildred Dresselhaus was born. She is known as the queen of the science of coal for her remarkable works on graphite",
    "eventYear": "1930",
    "image": "https://calendario-cientifico-escolar.github.io/images/personajes/315.png"
}