{
    "lang": "es",
    "year": 2021,
    "month": 11,
    "day": 14,
    "title": "14 de noviembre de 1863",
    "body": " Naci\u00f3 el qu\u00edmico Leo Baekeland. Invent\u00f3 la baquelita, el primer pl\u00e1stico sint\u00e9tico. Su bajo coste y versatilidad la hicieron muy popular",
    "eventYear": "1863",
    "image": "https://calendario-cientifico-escolar.github.io/images/personajes/318.png"
}