{
    "lang": "astu",
    "year": 2021,
    "month": 11,
    "day": 15,
    "title": "15 de payares de 1873",
    "body": " Naci\u00f3 la m\u00e9dica Sara Josephine Baker. Fixo importantes contribuciones pa menguar la tasa de mortalid\u00e1 infantil",
    "eventYear": "1873",
    "image": "https://calendario-cientifico-escolar.github.io/images/personajes/319.png"
}