{
    "lang": "eus",
    "year": 2021,
    "month": 11,
    "day": 15,
    "title": "1873/11/15",
    "body": " Sara Josephine Baker medikua jaio zen. Haurren heriotza-tasa murrizteko ekarpen garrantzitsuak egin zituen",
    "eventYear": "1873",
    "image": "https://calendario-cientifico-escolar.github.io/images/personajes/319.png"
}