{
    "lang": "cat",
    "year": 2021,
    "month": 11,
    "day": 16,
    "title": "16 de novembre de 1940",
    "body": " Va n\u00e9ixer la f\u00edsica Mar\u00eda Josefa Yzuel Gim\u00e9nez. La seva recerca s'ha centrat en el camp de l'\u00f2ptica i ha rebut nombroses distincions a nivell nacional i internacional",
    "eventYear": "1940",
    "image": "https://calendario-cientifico-escolar.github.io/images/personajes/320.png"
}