{
    "lang": "en",
    "year": 2021,
    "month": 11,
    "day": 16,
    "title": "November 16, 1940",
    "body": " Physicist Mar\u00eda Josefa Yzuel Gim\u00e9nez was born. Her research has focused on the field of optics and has received numerous national and international distinctions",
    "eventYear": "1940",
    "image": "https://calendario-cientifico-escolar.github.io/images/personajes/320.png"
}