{
    "lang": "es",
    "year": 2021,
    "month": 11,
    "day": 17,
    "title": "17 de noviembre de 2015",
    "body": " Un total de 195 estados ratific\u00f3 la creaci\u00f3n de los Geoparques Mundiales de la UNESCO. Se trata de lugares con un patrimonio geol\u00f3gico de relevancia internacional que se emplean para promover el desarrollo sostenible de las comunidades que habitan en ellos",
    "eventYear": "2015",
    "image": "https://calendario-cientifico-escolar.github.io/images/personajes/321.png"
}