{
    "lang": "en",
    "year": 2021,
    "month": 11,
    "day": 18,
    "title": "November 18, 2010",
    "body": " A.S.U.R. launched the first edition of the Scientific School Calendar (in Romania)",
    "eventYear": "2010",
    "image": "https://calendario-cientifico-escolar.github.io/images/personajes/322.png"
}