{
    "lang": "es",
    "year": 2021,
    "month": 11,
    "day": 19,
    "title": "19 de noviembre de 2006",
    "body": " La compa\u00f1\u00eda japonesa de videojuegos Nintendo sac\u00f3 al mercado la consola Wii",
    "eventYear": "2006",
    "image": "https://calendario-cientifico-escolar.github.io/images/personajes/323.png"
}