{
    "lang": "arag",
    "year": 2021,
    "month": 11,
    "day": 22,
    "title": "22 de noviembre de 2013",
    "body": " Un equipo d'investigaci\u00f3n d'a Universidat de B\u00f6nn descubre un chen d'orichen neandertal en personas actuals. Se tracta d'un chen d'a immunidat que permite reconoixer intrusos periglosos y desfender-se d'ells per medio d'una respuesta immune",
    "eventYear": "2013",
    "image": "https://calendario-cientifico-escolar.github.io/images/personajes/326.png"
}