{
    "lang": "astu",
    "year": 2021,
    "month": 11,
    "day": 23,
    "title": "23 de payares de 2002",
    "body": " Morri\u00f3\u2019l bioqu\u00edmicu \u00c1ngel Mart\u00edn Municio, el primer miembru espa\u00f1ol de la Organizaci\u00f3n Europea de Biolox\u00eda Molecular. Foi presidente de la Real Academia de Ciencies Esautes, F\u00edsiques y Naturales mientres 17 a\u00f1os",
    "eventYear": "2002",
    "image": "https://calendario-cientifico-escolar.github.io/images/personajes/327.png"
}