{
    "lang": "en",
    "year": 2021,
    "month": 11,
    "day": 23,
    "title": "November 23, 2002",
    "body": " Biochemist \u00c1ngel Mart\u00edn Municio, the first Spanish member of the European Organization for Molecular Biology, passed away. He was president of the Royal Academy of Exact, Physical, and Natural Sciences for 17 years",
    "eventYear": "2002",
    "image": "https://calendario-cientifico-escolar.github.io/images/personajes/327.png"
}