{
    "lang": "en",
    "year": 2021,
    "month": 11,
    "day": 25,
    "title": "November 25, 1884",
    "body": " A method to produce evaporated milk was patented to preserve the milk for longer periods. That same day, a machine was patented to sterilize the cans where this milk was preserved",
    "eventYear": "1884",
    "image": "https://calendario-cientifico-escolar.github.io/images/personajes/329.png"
}