{
    "lang": "arag",
    "year": 2021,
    "month": 11,
    "day": 26,
    "title": "26 de noviembre de 1857",
    "body": " Naixe lo ling\u00fcista Ferdinand de Saussure. Ye reconoixiu como lo pionero d'a ling\u00fcistica scientifica",
    "eventYear": "1857",
    "image": "https://calendario-cientifico-escolar.github.io/images/personajes/330.png"
}