{
    "lang": "astu",
    "year": 2021,
    "month": 11,
    "day": 28,
    "title": "28 de payares de 1920",
    "body": " Naci\u00f3 la qu\u00edmica Sagrariu Ram\u00edrez Gallardo. Invent\u00f3 y patent\u00f3 la gasolina s\u00f3lido",
    "eventYear": "1920",
    "image": "https://calendario-cientifico-escolar.github.io/images/personajes/332.png"
}