{
    "lang": "en",
    "year": 2021,
    "month": 11,
    "day": 28,
    "title": "November 28, 1920",
    "body": " Chemist Sagrario Ram\u00edrez Gallardo was born. She invented and patented the solid gasoline",
    "eventYear": "1920",
    "image": "https://calendario-cientifico-escolar.github.io/images/personajes/332.png"
}