{
    "lang": "astu",
    "year": 2021,
    "month": 11,
    "day": 29,
    "title": "29 de payares de 1926",
    "body": " Naci\u00f3 l\u2019astr\u00f3noma Dilhan Eryurt. El so trabayu apurri\u00f3 informaci\u00f3n crucial a la NASA pa modelar l\u2019impautu solar na redolada llunar. Foi premiada pola so contribuci\u00f3n nel allunizaxe del Apolo 11",
    "eventYear": "1926",
    "image": "https://calendario-cientifico-escolar.github.io/images/personajes/333.png"
}