{
    "lang": "es",
    "year": 2021,
    "month": 11,
    "day": 29,
    "title": "29 de noviembre de 1926",
    "body": " Naci\u00f3 la astr\u00f3noma Dilhan Eryurt. Su trabajo proporcion\u00f3 informaci\u00f3n crucial a la NASA para modelar el impacto solar en el entorno lunar. Fue premiada por su contribuci\u00f3n en el alunizaje del Apolo 11",
    "eventYear": "1926",
    "image": "https://calendario-cientifico-escolar.github.io/images/personajes/333.png"
}