{
    "lang": "es",
    "year": 2021,
    "month": 11,
    "day": 2,
    "title": "2 de noviembre de 1919",
    "body": " Naci\u00f3 Marie Morisawa, una de las fundadoras de la geomorfolog\u00eda ambiental. La geomorfolog\u00eda une geograf\u00eda\u200b y geolog\u00eda para estudiar las formas de la superficie terrestre y entender su formaci\u00f3n y comportamiento actual",
    "eventYear": "1919",
    "image": "https://calendario-cientifico-escolar.github.io/images/personajes/306.png"
}