{
    "lang": "en",
    "year": 2021,
    "month": 11,
    "day": 5,
    "title": "November 5, 1794",
    "body": " Chemist Elizabeth Fulhame published \"An Essay on Combustion\". It was the first example of catalysis to be described",
    "eventYear": "1794",
    "image": "https://calendario-cientifico-escolar.github.io/images/personajes/309.png"
}