{
    "lang": "es",
    "year": 2021,
    "month": 11,
    "day": 5,
    "title": "5 de noviembre de 1794",
    "body": " La qu\u00edmica Elizabeth Fulhame public\u00f3 Un ensayo sobre la combusti\u00f3n. Fue el primer ejemplo de cat\u00e1lisis que se describi\u00f3",
    "eventYear": "1794",
    "image": "https://calendario-cientifico-escolar.github.io/images/personajes/309.png"
}