{
    "lang": "eus",
    "year": 2021,
    "month": 11,
    "day": 5,
    "title": "1794/11/5",
    "body": " Elizabeth Fulhame kimikariak \"Errekuntzari buruzko saiakera bat\" argitaratu zuen. Lehen katalisi-adibidea deskribatu zuen bertan",
    "eventYear": "1794",
    "image": "https://calendario-cientifico-escolar.github.io/images/personajes/309.png"
}