{
    "lang": "eus",
    "year": 2021,
    "month": 11,
    "day": 8,
    "title": "1878/11/8",
    "body": " Dorothea Bate paleontologo eta zoologoa jaio zen. Zooarkeologian aitzindaria izan zen, eta, Dorothy Garrodekin batera, deskribatu gabe zeuden hainbat espezieren hondar fosilak aurkitu zituen",
    "eventYear": "1878",
    "image": "https://calendario-cientifico-escolar.github.io/images/personajes/312.png"
}