{
    "lang": "arag",
    "year": 2021,
    "month": 11,
    "day": 9,
    "title": "9 de noviembre de 1795",
    "body": " Naixe lo cirurchano James Barry. Fue medico de l'Armada britanica y treball\u00f3 pa amillorar las condicions d'os soldaus ferius. Realiz\u00f3 la primera cesaria exitosa d'a qual se tiene constancia en Africa",
    "eventYear": "1795",
    "image": "https://calendario-cientifico-escolar.github.io/images/personajes/313.png"
}