{
    "lang": "eus",
    "year": 2021,
    "month": 7,
    "day": 10,
    "title": "2020/7/10",
    "body": " CSICk nanozundak garatu zituen, gaixotasunen diagnostiko eta tratamendurako aplikazioekin. Nanozundak erabil daitezke gaixotasun baten lehen estadioak detektatzeko, botikak modu fokalizatuan bideratzeko, eta DNA edo birusak garraiatzeko",
    "eventYear": "2020",
    "image": "https://calendario-cientifico-escolar.github.io/images/personajes/191.png"
}