{
    "lang": "eus",
    "year": 2021,
    "month": 7,
    "day": 28,
    "title": "1635/7/28",
    "body": " Robert Hooke zientzialari ingelesa jaio zen. Micrographia liburuan, bizitza mikroskopikoa deskribatu zuen lehen pertsona izan zen. Zelula hitza liburu horretan agertu zen lehen aldiz",
    "eventYear": "1635",
    "image": "https://calendario-cientifico-escolar.github.io/images/personajes/209.png"
}