{
    "lang": "en",
    "year": 2021,
    "month": 11,
    "day": 13,
    "title": "November 13, 2013",
    "body": " NASA released a video depicting Mars as it might have been 4 billion years ago, with blue skies and water",
    "eventYear": "2013",
    "image": "https://calendario-cientifico-escolar.github.io/images/personajes/317.png"
}