{
    "lang": "en",
    "year": 2021,
    "month": 11,
    "day": 19,
    "title": "November 19, 2006",
    "body": " The Japanese video game company Nintendo released the Wii console",
    "eventYear": "2006",
    "image": "https://calendario-cientifico-escolar.github.io/images/personajes/323.png"
}