{
    "lang": "en",
    "year": 2021,
    "month": 11,
    "day": 29,
    "title": "November 29, 1926",
    "body": " Astronomer Dilhan Eryurt was born. Her work provided crucial information for NASA to model the solar impact on the lunar environment. She was awarded for her contribution to the Apollo 11 moon landing",
    "eventYear": "1926",
    "image": "https://calendario-cientifico-escolar.github.io/images/personajes/333.png"
}