{
    "lang": "astu",
    "year": 2021,
    "month": 10,
    "day": 9,
    "title": "9 d\u2019ochobre de 1902",
    "body": " La comunid\u00e1 cient\u00edfica internacional reconoci\u00f3 l\u2019autenticid\u00e1 del arte paleol\u00edticu de la cueva d\u2019Altamira. Estes pintures atop\u00f3les la ne\u00f1a Mar\u00eda Sanz de Sautuola cuando visitaba la cueva en compa\u00f1\u00eda del so padre Marcelino",
    "eventYear": "1902",
    "image": "https://calendario-cientifico-escolar.github.io/images/personajes/282.png"
}