{
    "lang": "eus",
    "year": 2021,
    "month": 6,
    "day": 19,
    "title": "1903/6/19",
    "body": " Rebeca Gerschman biokimikaria jaio zen. Gerschman teoria defendatu zuen, erradikal askeen bidezko oxigenoaren toxikotasunari buruzkoa, garaiko giro zientifikoaren asaldurarako",
    "eventYear": "1903",
    "image": "https://calendario-cientifico-escolar.github.io/images/personajes/170.png"
}