{
    "lang": "es",
    "year": 2021,
    "month": 4,
    "day": 10,
    "title": "10 de abril de 2011",
    "body": " Un estudio del IGME, CIATF y las Universidades Complutense y de Lisboa descubri\u00f3 dep\u00f3sitos de tsunamis en Tenerife. Los tsunamis provocaron olas de m\u00e1s de 50 metros de altura y estuvieron asociados a la destrucci\u00f3n del edificio volc\u00e1nico de Las Ca\u00f1adas, anterior al actual Teide",
    "eventYear": "2011",
    "image": "https://calendario-cientifico-escolar.github.io/images/personajes/100.png"
}