{
    "lang": "es",
    "year": 2021,
    "month": 4,
    "day": 12,
    "title": "12 de abril de 1961",
    "body": " Yuri Gagarin se convirti\u00f3 en el primer ser humano en viajar al espacio. Lo hizo a bordo de la nave sovi\u00e9tica Vostok 1",
    "eventYear": "1961",
    "image": "https://calendario-cientifico-escolar.github.io/images/personajes/102.png"
}