{
    "lang": "arag",
    "year": 2021,
    "month": 3,
    "day": 2,
    "title": "2 de marzo de 1922",
    "body": " Naixe la programadora Frances Bilas Spence. Va estar una d'as seis programadoras orichinals d'o primer ordinador dichital de proposito cheneral ENIAC",
    "eventYear": "1922",
    "image": "https://calendario-cientifico-escolar.github.io/images/personajes/61.png"
}