{
    "lang": "arag",
    "year": 2021,
    "month": 3,
    "day": 29,
    "title": "29 de marzo de 1942",
    "body": " Naixe la biologa Ann A. Kiessling. Chunto a Mehran Goulian, descubri\u00f3 l'actividat d'a transcriptasa inversa en celulas humanas. Anteriorment se pensaba que esta enzima se trobaba nom\u00e1s en os retrovirus",
    "eventYear": "1942",
    "image": "https://calendario-cientifico-escolar.github.io/images/personajes/88.png"
}