{
    "lang": "arag",
    "year": 2021,
    "month": 3,
    "day": 4,
    "title": "4 de marzo de 1877",
    "body": " Naixe l'etnologo Robert Fritz Graebner. Va desenrollar la teor\u00eda de Kulturkreis u Cerclo cultural. Esta teor\u00eda postulaba la difusi\u00f3n de culturas primitivas derivadas d'un solo tipo arcaico",
    "eventYear": "1877",
    "image": "https://calendario-cientifico-escolar.github.io/images/personajes/63.png"
}