{
    "lang": "en",
    "year": 2021,
    "month": 6,
    "day": 15,
    "title": "June 15, 1962",
    "body": " Thalidomide was found to cause deformities in fetal development. This sedative was used to calm nausea during the first months of pregnancy",
    "eventYear": "1962",
    "image": "https://calendario-cientifico-escolar.github.io/images/personajes/166.png"
}