{
    "lang": "astu",
    "year": 2021,
    "month": 5,
    "day": 20,
    "title": "20 de mayu de 1900",
    "body": " Naci\u00f3 la qu\u00edmica y f\u00edsica Erika Cremer. Foi pionera en cromatograf\u00eda de gases. Sicas\u00ed, el so art\u00edculu de 1944 sobre\u2019l so m\u00e9todu nun se lleg\u00f3 a asoleyar porque un bombard\u00e9u destruy\u00f3 les pruebes d\u2019imprenta na revista Naturwissenschaften",
    "eventYear": "1900",
    "image": "https://calendario-cientifico-escolar.github.io/images/personajes/140.png"
}