{
    "lang": "astu",
    "year": 2021,
    "month": 5,
    "day": 24,
    "title": "24 de mayu de 1878",
    "body": " Naci\u00f3 la psic\u00f3loga ya inxeniera Lillian Moller Gilbreth. Ye conocida pol so trabayu na aplicaci\u00f3n de la organizaci\u00f3n psicol\u00f3xica na industria",
    "eventYear": "1878",
    "image": "https://calendario-cientifico-escolar.github.io/images/personajes/144.png"
}