{
    "lang": "gal",
    "year": 2021,
    "month": 4,
    "day": 11,
    "title": "11 de abril de 2013",
    "body": " Desc\u00f3brese que escoitar sons durante o sono, en intervalos de tempo controlados, pode mellorar a memoria",
    "eventYear": "2013",
    "image": "https://calendario-cientifico-escolar.github.io/images/personajes/101.png"
}