{
    "lang": "gal",
    "year": 2021,
    "month": 4,
    "day": 16,
    "title": "16 de abril de 1921",
    "body": " Isaac Carasso solicitou a patente para a elaboraci\u00f3n dun leite callado denominado comunmente iogur. Bautizou a s\u00faa empresa Danone, polo diminutivo do nome do seu fillo Daniel (Dan\u00f3n)",
    "eventYear": "1921",
    "image": "https://calendario-cientifico-escolar.github.io/images/personajes/106.png"
}