{
    "lang": "gal",
    "year": 2021,
    "month": 4,
    "day": 3,
    "title": "3 de abril de 1934",
    "body": " Naceu a primat\u00f3loga Jane Goodall. \u00c9 reco\u00f1ecida mundialmente polos seus estudos sobre as interacci\u00f3ns sociais e familiares dos chimpanc\u00e9s",
    "eventYear": "1934",
    "image": "https://calendario-cientifico-escolar.github.io/images/personajes/93.png"
}