{
    "lang": "gal",
    "year": 2021,
    "month": 4,
    "day": 9,
    "title": "9 de abril de 1860",
    "body": " O inventor Eduard Le\u00f3n Scott de Martinville realizou a primeira gravaci\u00f3n co\u00f1ecida da voz humana. Era unha voz soprano que interpretaba a canci\u00f3n Au clair de la Lune",
    "eventYear": "1860",
    "image": "https://calendario-cientifico-escolar.github.io/images/personajes/99.png"
}