{
    "lang": "en",
    "year": 2021,
    "month": 2,
    "day": 12,
    "title": "February 12, 1809",
    "body": " Charles Darwin, the famous naturalist who developed the theory of evolution through natural selection, was born",
    "eventYear": "1809",
    "image": "https://calendario-cientifico-escolar.github.io/images/personajes/43.png"
}