{
    "lang": "astu",
    "year": 2021,
    "month": 2,
    "day": 15,
    "title": "15 de febreru de 2001",
    "body": " Public\u00f3se en Nature (y a otru d\u00eda en Science) la secuenciaci\u00f3n y an\u00e1lisis inicial del xenoma humanu",
    "eventYear": "2001",
    "image": "https://calendario-cientifico-escolar.github.io/images/personajes/46.png"
}