{
    "lang": "en",
    "year": 2021,
    "month": 2,
    "day": 16,
    "title": "February 16, 2005",
    "body": " The Kyoto Protocol, a global agreement to reduce greenhouse gas emissions, entered into force",
    "eventYear": "2005",
    "image": "https://calendario-cientifico-escolar.github.io/images/personajes/47.png"
}