{
    "lang": "astu",
    "year": 2021,
    "month": 2,
    "day": 18,
    "title": "18 de febreru de 1913",
    "body": " El qu\u00edmicu y Premio Nobel Frederick Soddy introduxo\u2019l t\u00e9rminu is\u00f3topu",
    "eventYear": "1913",
    "image": "https://calendario-cientifico-escolar.github.io/images/personajes/49.png"
}