{
    "lang": "cat",
    "year": 2021,
    "month": 2,
    "day": 18,
    "title": "18 de febrer de 1913",
    "body": " El qu\u00edmic i Premi Nobel Frederick Soddy va introduir el terme is\u00f2top",
    "eventYear": "1913",
    "image": "https://calendario-cientifico-escolar.github.io/images/personajes/49.png"
}