{
    "lang": "arag",
    "year": 2021,
    "month": 2,
    "day": 19,
    "title": "19 de febrero de 1878",
    "body": " Thomas A. Edison patenta lo fonografo",
    "eventYear": "1878",
    "image": "https://calendario-cientifico-escolar.github.io/images/personajes/50.png"
}