{
    "lang": "eus",
    "year": 2021,
    "month": 2,
    "day": 23,
    "title": "1879/2/23",
    "body": " Agnes Arber jaio zen, landare monokotiledoneoen azterketan espezializatutako botanikaria",
    "eventYear": "1879",
    "image": "https://calendario-cientifico-escolar.github.io/images/personajes/54.png"
}