{
    "lang": "arag",
    "year": 2021,
    "month": 2,
    "day": 27,
    "title": "27 de febrero de 1869",
    "body": " Naixe la patologa Alice Hamilton. Investig\u00f3 sobre malot\u00edas industrials y aduy\u00f3 a aconseguir condicions de treballo mas seguras",
    "eventYear": "1869",
    "image": "https://calendario-cientifico-escolar.github.io/images/personajes/58.png"
}