{
    "lang": "gal",
    "year": 2021,
    "month": 2,
    "day": 8,
    "title": "8 de febreiro de 1825",
    "body": " Naceu Henry Bates. Descubriu que, para se protexer dos depredadores, algunhas bolboretas inofensivas se asemellan moito a outras especies que son t\u00f3xicas (mimetismo batesiano)",
    "eventYear": "1825",
    "image": "https://calendario-cientifico-escolar.github.io/images/personajes/39.png"
}