{
    "lang": "astu",
    "year": 2021,
    "month": 6,
    "day": 6,
    "title": "6 de xunu de 1907",
    "body": " Llanz\u00f3se Persil al merc\u00e1u. Foi\u2019l primer deterxente de ropa d\u2019aici\u00f3n autom\u00e1tica",
    "eventYear": "1907",
    "image": "https://calendario-cientifico-escolar.github.io/images/personajes/157.png"
}