{
    "lang": "es",
    "year": 2021,
    "month": 3,
    "day": 20,
    "title": "20 de marzo de 2021",
    "body": " D\u00eda Mundial del Gorri\u00f3n. Esta iniciativa busca llamar la atenci\u00f3n sobre la situaci\u00f3n de los gorriones. Su poblaci\u00f3n sufre un importante declive, especialmente en las ciudades",
    "eventYear": "2021",
    "image": "https://calendario-cientifico-escolar.github.io/images/personajes/79.png"
}