{
    "lang": "es",
    "year": 2021,
    "month": 3,
    "day": 25,
    "title": "25 de marzo de 1914",
    "body": " Naci\u00f3 el agr\u00f3nomo Norman Borlaug. Apodado el Padre de la Revoluci\u00f3n Verde, recibi\u00f3 el Premio Nobel de la Paz por sus esfuerzos para introducir las semillas h\u00edbridas en la producci\u00f3n agr\u00edcola en M\u00e9xico, Pakist\u00e1n e India. Esto aument\u00f3 la productividad agr\u00edcola y se salvaron millones de vidas humanas",
    "eventYear": "1914",
    "image": "https://calendario-cientifico-escolar.github.io/images/personajes/84.png"
}