{
    "lang": "cat",
    "year": 2021,
    "month": 9,
    "day": 15,
    "title": "15 de setembre de 1885",
    "body": " Constantin Fahlberg va patentar la sacarina. Aquest edulcorant es va sintetitzar per primera vegada a partir de derivats del quitr\u00e0 d'hulla",
    "eventYear": "1885",
    "image": "https://calendario-cientifico-escolar.github.io/images/personajes/258.png"
}