{
    "lang": "cat",
    "year": 2021,
    "month": 9,
    "day": 4,
    "title": "4 de setembre de 1998",
    "body": " Larry Page i Sergei Brin van fundar Google. El cercador va comen\u00e7ar a desenvolupar-se el 1996 com un projecte d'investigaci\u00f3, quan ells dos eren estudiants de doctorat",
    "eventYear": "1998",
    "image": "https://calendario-cientifico-escolar.github.io/images/personajes/247.png"
}