{
    "lang": "cat",
    "year": 2021,
    "month": 9,
    "day": 5,
    "title": "5 de setembre de 1885",
    "body": " Es va instal\u00b7lar la primera benzinera. Va ser a un garatge d'Indiana (Estats Units)",
    "eventYear": "1885",
    "image": "https://calendario-cientifico-escolar.github.io/images/personajes/248.png"
}