{
    "lang": "es",
    "year": 2021,
    "month": 9,
    "day": 1,
    "title": "1 de septiembre de 1914",
    "body": " Falleci\u00f3 Martha, la \u00faltima paloma migratoria (Ectopistes migratorius). Ten\u00eda 29 a\u00f1os y viv\u00eda en cautividad en el zool\u00f3gico de Cincinnati (EE. UU.). En solo un siglo pas\u00f3 de ser el ave m\u00e1s abundante de Norteam\u00e9rica a extinguirse",
    "eventYear": "1914",
    "image": "https://calendario-cientifico-escolar.github.io/images/personajes/244.png"
}