{
    "lang": "en",
    "year": 2021,
    "month": 9,
    "day": 14,
    "title": "September 14, 1849",
    "body": " Physiologist and Nobel Prize winner Ivan Pavlov was born. He described the stimulus-response model or Pavlov's conditioning in dogs",
    "eventYear": "1849",
    "image": "https://calendario-cientifico-escolar.github.io/images/personajes/257.png"
}