{
    "lang": "cat",
    "year": 2021,
    "month": 3,
    "day": 12,
    "title": "12 de mar\u00e7 de 2015",
    "body": " Un nou tractament de la malaltia d'Alzheimer va aconseguir eliminar les plaques d'amiloide en el 75% dels casos (en ratolins)",
    "eventYear": "2015",
    "image": "https://calendario-cientifico-escolar.github.io/images/personajes/71.png"
}