{
    "lang": "cat",
    "year": 2021,
    "month": 3,
    "day": 27,
    "title": "27 de mar\u00e7 de 1827",
    "body": " Charles Darwin, amb 18 anys, va presentar el seu primer descobriment cient\u00edfic. Tractava sobre la biologia de petits animals marins",
    "eventYear": "1827",
    "image": "https://calendario-cientifico-escolar.github.io/images/personajes/86.png"
}