{
    "lang": "es",
    "year": 2021,
    "month": 10,
    "day": 26,
    "title": "26 de octubre de 1878",
    "body": " Naci\u00f3 el matem\u00e1tico Sixto C\u00e1mara Tecedor. Fue cofundador de la Asociaci\u00f3n Espa\u00f1ola para el Progreso de las Ciencias, la Sociedad Matem\u00e1tica Espa\u00f1ola y el Laboratorio y Seminario Matem\u00e1tico de la Junta para la Ampliaci\u00f3n de Estudios",
    "eventYear": "1878",
    "image": "https://calendario-cientifico-escolar.github.io/images/personajes/299.png"
}