{
    "lang": "gal",
    "year": 2021,
    "month": 5,
    "day": 16,
    "title": "16 de maio de 1919",
    "body": " Naceu o ocean\u00f3grafo e ec\u00f3logo Ram\u00f3n Margalef. Introduciu a Teor\u00eda da informaci\u00f3n en ecolox\u00eda e mais o \u00edndice de Shannon-Weaver como medida de diversidade",
    "eventYear": "1919",
    "image": "https://calendario-cientifico-escolar.github.io/images/personajes/136.png"
}