{
    "lang": "gal",
    "year": 2021,
    "month": 5,
    "day": 17,
    "title": "17 de maio de 1749",
    "body": " Naceu o inmun\u00f3logo Edward Jenner. Logrou a primeira vacina da historia, concretamente contra a var\u00edola",
    "eventYear": "1749",
    "image": "https://calendario-cientifico-escolar.github.io/images/personajes/137.png"
}