{
    "lang": "gal",
    "year": 2021,
    "month": 5,
    "day": 2,
    "title": "2 de maio de 1997",
    "body": " O equipo cient\u00edfico de Atapuerca obtivo o Premio Pr\u00edncipe de Asturias de Investigaci\u00f3n Cient\u00edfica e T\u00e9cnica polo descubrimento do Homo antecessor. Este hom\u00ednido viviu en Europa hai 800.000 anos",
    "eventYear": "1997",
    "image": "https://calendario-cientifico-escolar.github.io/images/personajes/122.png"
}