{
    "lang": "gal",
    "year": 2021,
    "month": 5,
    "day": 25,
    "title": "25 de maio de 1880",
    "body": " Naceu o neur\u00f3logo Jean Alexandre Barr\u00e9. Identificou a s\u00edndrome de Guillain-Barr\u00e9, unha doenza neurol\u00f3xica rara",
    "eventYear": "1880",
    "image": "https://calendario-cientifico-escolar.github.io/images/personajes/145.png"
}