{
    "lang": "en",
    "year": 2021,
    "month": 1,
    "day": 10,
    "title": "January 10, 1860",
    "body": " The London Underground was inaugurated. It is the oldest public underground transport system in the world",
    "eventYear": "1860",
    "image": "https://calendario-cientifico-escolar.github.io/images/personajes/10.png"
}