{
    "lang": "en",
    "year": 2021,
    "month": 1,
    "day": 25,
    "title": "January 25, 1235",
    "body": " Possible date of birth of Ram\u00f3n Llul. His writing entitled \"The tree of science\" is the first scientific treatise on nature in Spain",
    "eventYear": "1235",
    "image": "https://calendario-cientifico-escolar.github.io/images/personajes/25.png"
}