{
    "lang": "en",
    "year": 2021,
    "month": 1,
    "day": 4,
    "title": "January 4, 1963",
    "body": " Neuroscientist May-Britt Moser was born. She received a Nobel Prize for her research on brain grid cells",
    "eventYear": "1963",
    "image": "https://calendario-cientifico-escolar.github.io/images/personajes/4.png"
}