{
    "lang": "astu",
    "year": 2021,
    "month": 2,
    "day": 14,
    "title": "14 de febreru de 2005",
    "body": " Un equipu d\u2019investigadores del CSIC llogr\u00f3 y secuenci\u00f3 ADN d\u2019un individuu neandertal procedente del xacimientu d'El Sidr\u00f3n",
    "eventYear": "2005",
    "image": "https://calendario-cientifico-escolar.github.io/images/personajes/45.png"
}