{
    "lang": "eus",
    "year": 2021,
    "month": 11,
    "day": 10,
    "title": "1983/11/10",
    "body": " Fred Cohen doktorego-ikasleak programa informatiko bat sortu zuen, berez instalatzeko, erreplikatzeko eta beste makina batzuetara hedatzeko gai dena. Horrela, lehen birus informatikoa sortu zen",
    "eventYear": "1983",
    "image": "https://calendario-cientifico-escolar.github.io/images/personajes/314.png"
}