{
    "lang": "eus",
    "year": 2021,
    "month": 11,
    "day": 29,
    "title": "1926/11/29",
    "body": " Dilhan Eryurt astronomoa jaio zen. Haren lanari esker, NASAk funtsezko informazioa eskuratu zuen, eguzkiak ilargiaren ingurunean eragindako inpaktua modelatzeko. Sari bat eman zioten Apolo 11 ilargiratzean egin zuen ekarpenarengatik",
    "eventYear": "1926",
    "image": "https://calendario-cientifico-escolar.github.io/images/personajes/333.png"
}