{
    "lang": "arag",
    "year": 2021,
    "month": 11,
    "day": 7,
    "title": "7 de noviembre de 1867",
    "body": " Naixe la quimica y fisica Marie Curie. Cuny\u00f3 lo termen radioactividat y esti\u00f3 la primer persona en recibir dos premios Nobel en distintas especialidatz (Fisica y Quimica)",
    "eventYear": "1867",
    "image": "https://calendario-cientifico-escolar.github.io/images/personajes/311.png"
}