{
    "lang": "en",
    "year": 2021,
    "month": 2,
    "day": 19,
    "title": "February 19, 1878",
    "body": " Thomas A. Edison patented the phonograph",
    "eventYear": "1878",
    "image": "https://calendario-cientifico-escolar.github.io/images/personajes/50.png"
}