{
    "lang": "en",
    "year": 2021,
    "month": 2,
    "day": 5,
    "title": "February 5, 1949",
    "body": " Paleontologist Nieves L\u00f3pez Mart\u00ednez was born. She was internationally recognized as an expert in the evolution of lagomorphs (rabbits, hares, and pikes), and the biotic and environmental events related to the Cretaceous-Tertiary mass extinction",
    "eventYear": "1949",
    "image": "https://calendario-cientifico-escolar.github.io/images/personajes/36.png"
}