{
    "lang": "cat",
    "year": 2021,
    "month": 7,
    "day": 14,
    "title": "14 de juliol de 1862",
    "body": " Va n\u00e9ixer l'experta en cristal\u00b7lografia, mineralogia i petrografia Florence Bascom. Va ser la primera ge\u00f2loga dels EUA",
    "eventYear": "1862",
    "image": "https://calendario-cientifico-escolar.github.io/images/personajes/195.png"
}