{
    "lang": "cat",
    "year": 2021,
    "month": 7,
    "day": 15,
    "title": "15 de juliol de 1799",
    "body": " Durant la campanya de Napole\u00f3 a Egipte, es va descobrir la pedra de Rosetta. Aquesta pedra est\u00e0 inscrita en grec, jerogl\u00edfic i dem\u00f2tic, i \u00e9s la clau que permet desxifrar els jerogl\u00edfics egipcis",
    "eventYear": "1799",
    "image": "https://calendario-cientifico-escolar.github.io/images/personajes/196.png"
}