{
    "lang": "cat",
    "year": 2021,
    "month": 7,
    "day": 31,
    "title": "31 de juliol de 1923",
    "body": " Va n\u00e9ixer la qu\u00edmica Stephanie Kwolek. Va sintetitzar per primera vegada el Kevlar, un pol\u00edmer que s'usa en la fabricaci\u00f3 de pneum\u00e0tics, espelmes n\u00e0utiques o armilles antibales per la lleugeresa i extraordin\u00e0ria resist\u00e8ncia",
    "eventYear": "1923",
    "image": "https://calendario-cientifico-escolar.github.io/images/personajes/212.png"
}