{
    "lang": "eus",
    "year": 2021,
    "month": 2,
    "day": 16,
    "title": "2005/2/16",
    "body": " Kiotoko Protokoloa indarrean hasi zen, hau da, berotegi-efektuko gasen emisioak murrizteko mundu-hitzarmena",
    "eventYear": "2005",
    "image": "https://calendario-cientifico-escolar.github.io/images/personajes/47.png"
}