{
    "lang": "eus",
    "year": 2021,
    "month": 2,
    "day": 19,
    "title": "1878/2/19",
    "body": " Thomas A. Edisonek fonografoa patentatu zuen",
    "eventYear": "1878",
    "image": "https://calendario-cientifico-escolar.github.io/images/personajes/50.png"
}