{
    "lang": "eus",
    "year": 2021,
    "month": 2,
    "day": 27,
    "title": "1869/2/27",
    "body": " Alice Hamilton patologoa jaio zen. Industria-gaixotasunei buruzko ikerketak egin zituen, eta lan-baldintza seguruagoak lortzen lagundu zuen",
    "eventYear": "1869",
    "image": "https://calendario-cientifico-escolar.github.io/images/personajes/58.png"
}