{
    "lang": "es",
    "year": 2021,
    "month": 5,
    "day": 11,
    "title": "11 de mayo de 2011",
    "body": " Tuvo lugar un terremoto en Lorca (Murcia) con una magnitud de 5,2 Mw. Caus\u00f3 un gran impacto, con 9 v\u00edctimas mortales y cuantiosos da\u00f1os materiales",
    "eventYear": "2011",
    "image": "https://calendario-cientifico-escolar.github.io/images/personajes/131.png"
}