{
    "lang": "eus",
    "year": 2021,
    "month": 5,
    "day": 12,
    "title": "1910/5/12",
    "body": " Dorothy Crowfoot Hodgkin Nobel Saria jaio zen. Penizilinaren edo intsulinaren molekulen 3Dko egitura zehaztu zuen. 3Dko egitura funtsezkoa da funtzioak ulertzeko",
    "eventYear": "1910",
    "image": "https://calendario-cientifico-escolar.github.io/images/personajes/132.png"
}