{
    "lang": "en",
    "year": 2021,
    "month": 5,
    "day": 14,
    "title": "May 14, 1899",
    "body": " Biologist Charlotte Auerbach was born. She was specialized in zoology and genetics and contributed to the discovery of mutagenesis and its effects. She became famous in 1942 when she showed, with Alfred Joseph Clark and J. M. Robson, that mustard gas could cause mutations",
    "eventYear": "1899",
    "image": "https://calendario-cientifico-escolar.github.io/images/personajes/134.png"
}