{
    "lang": "eus",
    "year": 2021,
    "month": 5,
    "day": 15,
    "title": "1925/5/15",
    "body": " Mary Frances Lyon genetista jaio zen. Lionizazioa aurkitu zuen; fenomeno horren bitartez, X kromosomaren bi kopietako bat desaktibatzen da eme ugaztunen zeluletan",
    "eventYear": "1925",
    "image": "https://calendario-cientifico-escolar.github.io/images/personajes/135.png"
}