{
    "lang": "es",
    "year": 2021,
    "month": 5,
    "day": 17,
    "title": "17 de mayo de 1749",
    "body": " Naci\u00f3 el inmun\u00f3logo Edward Jenner. Logr\u00f3 la primera vacuna de la historia, concretamente contra la viruela",
    "eventYear": "1749",
    "image": "https://calendario-cientifico-escolar.github.io/images/personajes/137.png"
}