{
    "lang": "eus",
    "year": 2021,
    "month": 5,
    "day": 19,
    "title": "2014/5/19",
    "body": " NASA InSight robot espaziala eraikitzen hasi zen, 2018an Marten lehorreratu zena",
    "eventYear": "2014",
    "image": "https://calendario-cientifico-escolar.github.io/images/personajes/139.png"
}