{
    "lang": "arag",
    "year": 2021,
    "month": 5,
    "day": 20,
    "title": "20 de mayo de 1900",
    "body": " Naixe la quimica y fisica Erika Cremer. Va estar pionera en cromatograf\u00eda de gases. Manimenos, l'articlo de 1944 sobre lo suyo metodo no va arribar a publicar-se perque un bombardeyo destruyi\u00f3 las prebas d'imprenta en a revista Naturwissenschaften",
    "eventYear": "1900",
    "image": "https://calendario-cientifico-escolar.github.io/images/personajes/140.png"
}