{
    "lang": "astu",
    "year": 2021,
    "month": 5,
    "day": 23,
    "title": "23 de mayu de 1954",
    "body": " Naci\u00f3\u2019l bi\u00f3logu Keith Campbell. Foi una persona clave del equipu que clon\u00f3 la oveya Dolly nel Institutu Roslin d\u2019Edimburgu",
    "eventYear": "1954",
    "image": "https://calendario-cientifico-escolar.github.io/images/personajes/143.png"
}