{
    "lang": "cat",
    "year": 2021,
    "month": 5,
    "day": 26,
    "title": "26 de maig de 1872",
    "body": " Va n\u00e9ixer Trinidad Arroyo Villaverde. Va ser la primera oftalm\u00f2loga espanyola",
    "eventYear": "1872",
    "image": "https://calendario-cientifico-escolar.github.io/images/personajes/146.png"
}