{
    "lang": "astu",
    "year": 2021,
    "month": 5,
    "day": 28,
    "title": "28 de mayu de 1912",
    "body": " Naci\u00f3 l\u2019astr\u00f3noma Ruby Violet Payne-Scott. Estudi\u00f3 la influencia del campu magn\u00e9ticu de la Tierra y les erupciones solares",
    "eventYear": "1912",
    "image": "https://calendario-cientifico-escolar.github.io/images/personajes/148.png"
}