{
    "lang": "cat",
    "year": 2021,
    "month": 5,
    "day": 29,
    "title": "29 de maig de 1826",
    "body": " Va n\u00e9ixer el sastre Ebenezer Butterick. Al costat de la seva dona, Ellen Augusta Pollard, van inventar i comercialitzar els patrons de costura moderns. Aquests patrons tenien graduacions amb m\u00faltiples talles est\u00e0ndard",
    "eventYear": "1826",
    "image": "https://calendario-cientifico-escolar.github.io/images/personajes/149.png"
}