{
    "lang": "eus",
    "year": 2021,
    "month": 5,
    "day": 31,
    "title": "1903/5/31",
    "body": " Konstantin Tsiolkovsky fisikariak lehen aldiz proposatu zuen pertsonek espaziora bidaiatzeko aukera izango zutela, suziriak erabiliz",
    "eventYear": "1903",
    "image": "https://calendario-cientifico-escolar.github.io/images/personajes/151.png"
}