{
    "lang": "cat",
    "year": 2021,
    "month": 5,
    "day": 4,
    "title": "4 de maig de 1825",
    "body": " Va n\u00e9ixer el bi\u00f2leg Thomas Huxley. Va ser el primer que va suggerir que les aus van evolucionar a partir dels dinosaures",
    "eventYear": "1825",
    "image": "https://calendario-cientifico-escolar.github.io/images/personajes/124.png"
}