{
    "lang": "gal",
    "year": 2021,
    "month": 5,
    "day": 4,
    "title": "4 de maio de 1825",
    "body": " Naceu o bi\u00f3logo Thomas Huxley. Foi o primeiro en suxerir que as aves evolucionaron a partir dos dinosauros",
    "eventYear": "1825",
    "image": "https://calendario-cientifico-escolar.github.io/images/personajes/124.png"
}