{
    "lang": "cat",
    "year": 2021,
    "month": 5,
    "day": 5,
    "title": "5 de maig de 1882",
    "body": " Va n\u00e9ixer el metge i cient\u00edfic espanyol P\u00edo del R\u00edo Ortega. Va descobrir la micr\u00f2glia, un tipus de c\u00e8l\u00b7lula del sistema nervi\u00f3s",
    "eventYear": "1882",
    "image": "https://calendario-cientifico-escolar.github.io/images/personajes/125.png"
}