{
    "lang": "gal",
    "year": 2021,
    "month": 5,
    "day": 6,
    "title": "6 de maio de 1840",
    "body": " Sa\u00edu \u00e1 venda o primeiro selo adhesivo. Ti\u00f1a o perfil da ra\u00ed\u00f1a Vitoria do Reino Unido e era reco\u00f1ecido como o penny black",
    "eventYear": "1840",
    "image": "https://calendario-cientifico-escolar.github.io/images/personajes/126.png"
}