{
    "lang": "gal",
    "year": 2021,
    "month": 5,
    "day": 7,
    "title": "7 de maio de 1954",
    "body": " Comezou a construci\u00f3n da ponte Mackinac en Michigan. No seu momento foi a ponte colgante m\u00e1is longa do mundo",
    "eventYear": "1954",
    "image": "https://calendario-cientifico-escolar.github.io/images/personajes/127.png"
}