{
    "lang": "cat",
    "year": 2021,
    "month": 5,
    "day": 8,
    "title": "8 de maig de 1980",
    "body": " L'OMS va certificar l'erradicaci\u00f3 de la verola. Aquesta fita es va aconseguir gr\u00e0cies a la vacunaci\u00f3",
    "eventYear": "1980",
    "image": "https://calendario-cientifico-escolar.github.io/images/personajes/128.png"
}