{
    "lang": "eus",
    "year": 2021,
    "month": 8,
    "day": 31,
    "title": "1912/8/31",
    "body": " Robert F. Borkenstein ikertzailea jaio zen. Alkohol-kontsumoak trafiko-istripuetan duen eragina ikertu zuen. Alkoholimetroa asmatu zuen, botatako arnasan alkohol-maila neurtzeko tresna iraultzaile bat",
    "eventYear": "1912",
    "image": "https://calendario-cientifico-escolar.github.io/images/personajes/243.png"
}