{
    "lang": "eus",
    "year": 2021,
    "month": 8,
    "day": 6,
    "title": "1991/8/6",
    "body": " 1 Tim Berners-Lee konputazioko zientzialariak lehen web zerbitzaria jarri zuen martxan. CERN Ikerketa Nuklearrerako Europako Erakundean zegoen zerbitzari hori.\"",
    "eventYear": "1991",
    "image": "https://calendario-cientifico-escolar.github.io/images/personajes/218.png"
}