{
    "lang": "eus",
    "year": 2021,
    "month": 8,
    "day": 8,
    "title": "1948/8/8",
    "body": " Svetlana Sav\u00edtskaya ingeniari eta kosmonauta jaio zen. Kanpo-espaziora bi bidaia egin zituen eta hartan barrena ibili zen lehen emakumea izan zen",
    "eventYear": "1948",
    "image": "https://calendario-cientifico-escolar.github.io/images/personajes/220.png"
}