{
    "lang": "astu",
    "year": 2021,
    "month": 12,
    "day": 11,
    "title": "11 d\u2019avientu de 1863",
    "body": " Naci\u00f3 l\u2019astr\u00f3noma Annie Jump Cannon. Afay\u00f3 300 estrelles variables y el so trabayu de catalogaci\u00f3n foi fundamental pa l\u2019actual clasificaci\u00f3n estelar",
    "eventYear": "1863",
    "image": "https://calendario-cientifico-escolar.github.io/images/personajes/345.png"
}