{
    "lang": "astu",
    "year": 2021,
    "month": 12,
    "day": 13,
    "title": "13 d\u2019avientu de 1816",
    "body": " Naci\u00f3 l\u2019inventor Werner von Siemens. Ta consider\u00e1u \u00fan de los padres de la inxenier\u00eda ll\u00e9trica y el so apell\u00edu qued\u00f3 aun\u00edu pa siempre a la empresa que fund\u00f3: Siemens",
    "eventYear": "1816",
    "image": "https://calendario-cientifico-escolar.github.io/images/personajes/347.png"
}