{
    "lang": "astu",
    "year": 2021,
    "month": 12,
    "day": 16,
    "title": "16 d\u2019avientu de 1954",
    "body": " Tracy Hall llogr\u00f3 los primeros diamantes sint\u00e9ticos nos llaboratorios de General Electrics",
    "eventYear": "1954",
    "image": "https://calendario-cientifico-escolar.github.io/images/personajes/350.png"
}