{
    "lang": "arag",
    "year": 2021,
    "month": 10,
    "day": 11,
    "title": "11 d'octubre de 1755",
    "body": " Naixe lo quimico Fausto Delhuyar. Chunto a lo suyo chirm\u00e1n Juan Jos\u00e9, tami\u00e9n quimico, fueron los primers en isolar lo wolframio (numero atomico 74 en a Tabla Periodica). Este metal ye bien escaso y muito cudiciau per las suyas multiples aplicacions",
    "eventYear": "1755",
    "image": "https://calendario-cientifico-escolar.github.io/images/personajes/284.png"
}