{
    "lang": "arag",
    "year": 2021,
    "month": 10,
    "day": 17,
    "title": "17 d'octubre de 1919",
    "body": " Prencipia a funcionar la primer linia de metro d'Espanya. Discurriba entre la Puerta d'o Sol y Quatre Camins, en Madrid",
    "eventYear": "1919",
    "image": "https://calendario-cientifico-escolar.github.io/images/personajes/290.png"
}