{
    "lang": "arag",
    "year": 2021,
    "month": 10,
    "day": 24,
    "title": "24 d'octubre de 1924",
    "body": " Naixe la bioquimica y especialista en cereals Evangelina Villegas. Con o suyo colega Surinder K. Vasal, va desenrollar la prote\u00edna de panizo d'alta calidat, per lo qual obtenioron lo Premio Mundial d'Alimentos",
    "eventYear": "1924",
    "image": "https://calendario-cientifico-escolar.github.io/images/personajes/297.png"
}