{
    "lang": "arag",
    "year": 2021,
    "month": 10,
    "day": 30,
    "title": "30 d'octubre de 1900",
    "body": " Naixe lo scientifico Ragnar Granit. Va ganar lo Premio Nobel per los suyos descubrimientos d'os procesos fisiolochicos y quimicos en o uello",
    "eventYear": "1900",
    "image": "https://calendario-cientifico-escolar.github.io/images/personajes/303.png"
}