{
    "lang": "arag",
    "year": 2021,
    "month": 10,
    "day": 5,
    "title": "5 d'octubre de 1963",
    "body": " Naixe lo microbiologo Francisco Juan Mart\u00ednez Mojica. Descubri\u00f3 las seq\u00fcencias repetidas CRISPR en arqueas. La tecnoloch\u00eda CRISPR-Cas d'edici\u00f3n chenetica se basa en parte en ixe descubrimiento",
    "eventYear": "1963",
    "image": "https://calendario-cientifico-escolar.github.io/images/personajes/278.png"
}