{
    "lang": "eus",
    "year": 2021,
    "month": 4,
    "day": 10,
    "title": "2011/4/10",
    "body": " IGMEren, CIATFren, eta Unibertsitate Konplutentsearen eta Lisboako Unibertsitatearen azterlan batean, Tenerifen tsunamien metakinak zeudela aurkitu zuten. Tsunamien ondorioz, 50 metrotik gorako olatuak izan ziren, eta Las Ca\u00f1adaseko sumendi-eraikina suntsitzea ere eragin zuten, gaur egun Teide dagoen lekuan",
    "eventYear": "2011",
    "image": "https://calendario-cientifico-escolar.github.io/images/personajes/100.png"
}