{
    "lang": "eus",
    "year": 2021,
    "month": 4,
    "day": 14,
    "title": "1977/4/14",
    "body": " Rosemary Huttonek artikulu bat argitaratu zuen, harkaitzen eroankortasun elektrikoa historia geologikoa ikertzeko nola erabil daitekeen aditzera emanez",
    "eventYear": "1977",
    "image": "https://calendario-cientifico-escolar.github.io/images/personajes/104.png"
}