{
    "lang": "eus",
    "year": 2021,
    "month": 4,
    "day": 3,
    "title": "1934/4/3",
    "body": " Jane Goodall primatologoa jaio zen. Mundu osoan ezaguna da txinpantzeen interakzio sozial eta familiarrei buruz egin dituen azterlanengatik",
    "eventYear": "1934",
    "image": "https://calendario-cientifico-escolar.github.io/images/personajes/93.png"
}