{
    "lang": "eus",
    "year": 2021,
    "month": 8,
    "day": 12,
    "title": "1898/8/12",
    "body": " Mar\u00eda Vas\u00edlievna Kli\u00f3nova itsas geologoa jaio zen. Antartikan ikertu zuen lehen emakumea izan zen",
    "eventYear": "1898",
    "image": "https://calendario-cientifico-escolar.github.io/images/personajes/224.png"
}