{
    "lang": "es",
    "year": 2021,
    "month": 8,
    "day": 13,
    "title": "13 de agosto de 1797",
    "body": " Naci\u00f3 el ingeniero y ge\u00f3logo Casiano de Prado. En 1862, particip\u00f3 en el descubrimiento de los primeros hallazgos paleol\u00edticos de la pen\u00ednsula Ib\u00e9rica, en el valle del Manzanares",
    "eventYear": "1797",
    "image": "https://calendario-cientifico-escolar.github.io/images/personajes/225.png"
}