{
    "lang": "astu",
    "year": 2021,
    "month": 8,
    "day": 14,
    "title": "14 d\u2019agostu de 1777",
    "body": " Naci\u00f3 Hans Christian Oersted. Foi\u2019l f\u00edsicu que descubri\u00f3 l\u2019electromagnetismu",
    "eventYear": "1777",
    "image": "https://calendario-cientifico-escolar.github.io/images/personajes/226.png"
}