{
    "lang": "cat",
    "year": 2021,
    "month": 8,
    "day": 15,
    "title": "15 de agost de 1896",
    "body": " Va n\u00e9ixer la bioqu\u00edmica Gerty Cori. Al costat del seu marit Carl, va descobrir el mecanisme de la conversi\u00f3 catal\u00edtica del glucogen (el cicle de Cori). Va ser la primera dona que va guanyar el Premi Nobel en Fisiologia i Medicina",
    "eventYear": "1896",
    "image": "https://calendario-cientifico-escolar.github.io/images/personajes/227.png"
}