{
    "lang": "es",
    "year": 2021,
    "month": 8,
    "day": 15,
    "title": "15 de agosto de 1896",
    "body": " Naci\u00f3 la bioqu\u00edmica Gerty Cori. Junto a su marido Carl, descubri\u00f3 el mecanismo de la conversi\u00f3n catal\u00edtica del gluc\u00f3geno (el ciclo de Cori). Fue la primera mujer en ganar el Premio Nobel en Fisiolog\u00eda y Medicina",
    "eventYear": "1896",
    "image": "https://calendario-cientifico-escolar.github.io/images/personajes/227.png"
}