{
    "lang": "en",
    "year": 2021,
    "month": 8,
    "day": 17,
    "title": "August 17, 1737",
    "body": " Agronomist, hygienist, and nutritionist Antoine Parmentier was born. Thanks to his work, the laws that prohibited the cultivation of potatoes were annulled. Until then, almost all European countries considered that potatoes were inedible",
    "eventYear": "1737",
    "image": "https://calendario-cientifico-escolar.github.io/images/personajes/229.png"
}