{
    "lang": "es",
    "year": 2021,
    "month": 8,
    "day": 17,
    "title": "17 de agosto de 1737",
    "body": " Naci\u00f3 el agr\u00f3nomo, higienista y nutricionista Antoine Parmentier. Gracias a su trabajo, se anularon las leyes que prohib\u00edan el cultivo de la patata. Hasta entonces, casi todos los pa\u00edses europeos consideraban que la patata no era comestible",
    "eventYear": "1737",
    "image": "https://calendario-cientifico-escolar.github.io/images/personajes/229.png"
}