{
    "lang": "arag",
    "year": 2021,
    "month": 8,
    "day": 19,
    "title": "19 d'agosto de 1790",
    "body": " Naixe lo relochero Edward John Dent. Ye reconoixiu per la creaci\u00f3n de reloches de gran precisi\u00f3n y cronometros marinos. Entre los suyos reloches mas famosos ye lo Big Ben de Londra",
    "eventYear": "1790",
    "image": "https://calendario-cientifico-escolar.github.io/images/personajes/231.png"
}