{
    "lang": "es",
    "year": 2021,
    "month": 8,
    "day": 24,
    "title": "24 de agosto de 1890",
    "body": " Naci\u00f3 la bacteri\u00f3loga Pearl Louella Kendrick. Es conocida por desarrollar la primera vacuna contra la tosferina. Lo hizo en colaboraci\u00f3n con la experta en salud p\u00fablica Grace Eldering y la qu\u00edmica Loney Gordon",
    "eventYear": "1890",
    "image": "https://calendario-cientifico-escolar.github.io/images/personajes/236.png"
}