{
    "lang": "cat",
    "year": 2021,
    "month": 8,
    "day": 27,
    "title": "27 de agost de 1956",
    "body": " La central nuclear de Calder Hall es va convertir en la primera del Regne Unit que va subministrar electricitat a la poblaci\u00f3 civil",
    "eventYear": "1956",
    "image": "https://calendario-cientifico-escolar.github.io/images/personajes/239.png"
}