{
    "lang": "es",
    "year": 2021,
    "month": 8,
    "day": 27,
    "title": "27 de agosto de 1956",
    "body": " La central nuclear de Calder Hall se convirti\u00f3 en la primera del Reino Unido en suministrar electricidad a la poblaci\u00f3n civil",
    "eventYear": "1956",
    "image": "https://calendario-cientifico-escolar.github.io/images/personajes/239.png"
}