{
    "lang": "gal",
    "year": 2021,
    "month": 8,
    "day": 29,
    "title": "29 de agosto de 2019",
    "body": " O maior estudo realizado para pescudar a importancia dos xenes na conduta sexual confirmouse que non existe un \u00fanico xene da homosexualidade e puxo de manifesto a complexidade da sexualidade humana",
    "eventYear": "2019",
    "image": "https://calendario-cientifico-escolar.github.io/images/personajes/241.png"
}