{
    "lang": "eus",
    "year": 2021,
    "month": 8,
    "day": 30,
    "title": "1984/8/30",
    "body": " Discovery espaziontzia lehen aldiz aireratu zen. NASArentzat 39 misio egin zituen",
    "eventYear": "1984",
    "image": "https://calendario-cientifico-escolar.github.io/images/personajes/242.png"
}