{
    "lang": "arag",
    "year": 2021,
    "month": 8,
    "day": 31,
    "title": "31 d'agosto de 1912",
    "body": " Naixe l'investigador Robert F. Borkenstein. Investig\u00f3 la influencia d'o consumo de alcol en os accidents de trafico. Invent\u00f3 l'alcolimetro, un estrumento revolucionario pa medir lo nivel d'alcol en l'aire espirau",
    "eventYear": "1912",
    "image": "https://calendario-cientifico-escolar.github.io/images/personajes/243.png"
}