{
    "lang": "es",
    "year": 2021,
    "month": 8,
    "day": 6,
    "title": "6 de agosto de 1991",
    "body": " El cient\u00edfico de la computaci\u00f3n Tim Berners-Lee puso en l\u00ednea el primer servidor web. Este servidor se encontraba en la Organizaci\u00f3n Europea para la Investigaci\u00f3n Nuclear (CERN)",
    "eventYear": "1991",
    "image": "https://calendario-cientifico-escolar.github.io/images/personajes/218.png"
}