{
    "lang": "astu",
    "year": 2021,
    "month": 9,
    "day": 18,
    "title": "18 de setiembre de 1819",
    "body": " Naci\u00f3\u2019l f\u00edsicu Jean Foucault. Invent\u00f3\u2019l xiroscopiu y el p\u00e9ndulu que demuestra la rotaci\u00f3n de la Tierra",
    "eventYear": "1819",
    "image": "https://calendario-cientifico-escolar.github.io/images/personajes/261.png"
}