{
    "lang": "astu",
    "year": 2021,
    "month": 9,
    "day": 7,
    "title": "7 de setiembre de 2016",
    "body": " Investigadores del IXME, l\u2019Institutu de Ciencies del Mar (CSIC) y la Universid\u00e1 de Les Palmes de Gran Canaria descubrieron que la isla d\u2019El Hierro perdi\u00f3\u2019l 40% del so volume nun enorme esbarrumbamientu de tierra. El megadeslizamientu tuvo llugar va 80.000 a\u00f1os",
    "eventYear": "2016",
    "image": "https://calendario-cientifico-escolar.github.io/images/personajes/250.png"
}