{
    "lang": "astu",
    "year": 2021,
    "month": 9,
    "day": 8,
    "title": "8 de setiembre de 1871",
    "body": " Naci\u00f3 la inventora y pianista Mary Elizabeth Hallock-Greenewalt. Les sos patentes fixeron posible\u2019l desendolcu de Sarabet, un mu\u00e9rganu de color. Esti pres\u00e9u emit\u00eda lluces de colores con intensidaes y matices que taben sincronizaes cola m\u00fasica",
    "eventYear": "1871",
    "image": "https://calendario-cientifico-escolar.github.io/images/personajes/251.png"
}