{
    "lang": "astu",
    "year": 2021,
    "month": 8,
    "day": 13,
    "title": "13 d\u2019agostu de 1797",
    "body": " Naci\u00f3 l\u2019inxenieru y xe\u00f3logu Casiano de Prado. En 1862, particip\u00f3 nel descubrimientu de los primeros afayos paleol\u00edticos de la pen\u00ednsula Ib\u00e9rica, nel valle del Manzanares",
    "eventYear": "1797",
    "image": "https://calendario-cientifico-escolar.github.io/images/personajes/225.png"
}