{
    "lang": "astu",
    "year": 2021,
    "month": 8,
    "day": 19,
    "title": "19 d\u2019agostu de 1790",
    "body": " Naci\u00f3\u2019l reloxeru Edward John Dent. Ye reconoc\u00edu pola creaci\u00f3n de rel\u00f3s de gran precisi\u00f3n y cron\u00f3metros marinos. Ente los sos rel\u00f3s de m\u00e1s sonad\u00eda ta\u2019l Big Ben de Londres",
    "eventYear": "1790",
    "image": "https://calendario-cientifico-escolar.github.io/images/personajes/231.png"
}