{
    "lang": "astu",
    "year": 2021,
    "month": 8,
    "day": 7,
    "title": "7 d\u2019agostu de 1933",
    "body": " Naci\u00f3 la polit\u00f3loga Elinor Ostrom. Foi la primer muyer en llograr el Premiu Nobel d\u2019Econom\u00eda, en 2009. Estudi\u00f3 c\u00f3mo les persones interact\u00faen par caltener al llargu plazu los niveles de producci\u00f3n de recursos comunes",
    "eventYear": "1933",
    "image": "https://calendario-cientifico-escolar.github.io/images/personajes/219.png"
}