{
    "lang": "astu",
    "year": 2021,
    "month": 8,
    "day": 8,
    "title": "8 d\u2019agostu de 1948",
    "body": " Naci\u00f3 la inxeniera y cosmonauta Svetlana Sav\u00edtskaya. Foi la primer muyer en facer dos viaxes al espaciu esterior y en caminar per esti",
    "eventYear": "1948",
    "image": "https://calendario-cientifico-escolar.github.io/images/personajes/220.png"
}