{
    "lang": "es",
    "year": 2021,
    "month": 12,
    "day": 15,
    "title": "15 de diciembre de 2010",
    "body": " Arranc\u00f3 la Expedici\u00f3n de Circunnavegaci\u00f3n Malaspina. Los buques Hesp\u00e9rides y Sarmiento de Gamboa (CSIC) dieron la vuelta al mundo para realizar investigaci\u00f3n cient\u00edfica, formar j\u00f3venes investigadores y fomentar las ciencias marinas. Su nombre es un homenaje a la expedici\u00f3n que dirigi\u00f3 Alejandro Malaspina en el siglo XVIII",
    "eventYear": "2010",
    "image": "https://calendario-cientifico-escolar.github.io/images/personajes/349.png"
}