{
    "lang": "es",
    "year": 2021,
    "month": 12,
    "day": 21,
    "title": "21 de diciembre de 1773",
    "body": " Naci\u00f3 el bot\u00e1nico Robert Brown. Descubri\u00f3 que las min\u00fasculas part\u00edculas suspendidas en los l\u00edquidos est\u00e1n en movimiento. Esto se conoce como movimiento browniano",
    "eventYear": "1773",
    "image": "https://calendario-cientifico-escolar.github.io/images/personajes/355.png"
}