{
    "lang": "gal",
    "year": 2021,
    "month": 2,
    "day": 18,
    "title": "18 de febreiro de 1913",
    "body": " O qu\u00edmico e Premio Nobel Frederick Soddy introduciu o termo is\u00f3topo",
    "eventYear": "1913",
    "image": "https://calendario-cientifico-escolar.github.io/images/personajes/49.png"
}