{
    "lang": "gal",
    "year": 2021,
    "month": 6,
    "day": 23,
    "title": "23 de xu\u00f1o de 1912",
    "body": " Naceu o matem\u00e1tico, l\u00f3xico e criptoanalista Alan Turing. Foi o pioneiro da inform\u00e1tica moderna",
    "eventYear": "1912",
    "image": "https://calendario-cientifico-escolar.github.io/images/personajes/174.png"
}