{
    "lang": "eus",
    "year": 2021,
    "month": 12,
    "day": 10,
    "title": "1823/12/10",
    "body": " Mary Anning paleontologoak plesiosaurio baten lehen eskeleto osoa aurkitu zuen. Itsas narrasti handi hori Jurasikoaren hasieran bizi izan zen",
    "eventYear": "1823",
    "image": "https://calendario-cientifico-escolar.github.io/images/personajes/344.png"
}