{
    "lang": "eus",
    "year": 2021,
    "month": 12,
    "day": 14,
    "title": "1911/12/14",
    "body": " Roald Amundsenek zuzendutako norvegiar espedizioa Hego Polora iritsi zen. Bertan denda bat utzi zuten, eta, dendaren barruan, gutun bat, lorpenaren testigantza uzteko, litekeena zelako taldeak onik itzultzeko aukerarik ez izatea",
    "eventYear": "1911",
    "image": "https://calendario-cientifico-escolar.github.io/images/personajes/348.png"
}