{
    "lang": "eus",
    "year": 2021,
    "month": 12,
    "day": 24,
    "title": "1913/12/24",
    "body": " Miriam Michael Stimson kimikaria jaio zen. Potasio-bromurozko diskoaren teknika garatu zuen. Laginak prestatzeko metodo horrek analisia hobetzen du espektroskopia infragorriaren bitartez",
    "eventYear": "1913",
    "image": "https://calendario-cientifico-escolar.github.io/images/personajes/358.png"
}