{
    "lang": "eus",
    "year": 2021,
    "month": 12,
    "day": 27,
    "title": "1822/12/27",
    "body": " Louis Pasteur kimikari eta mikrobiologoa jaio zen. Hartziduraren atzean mikroorganismoak zeudela frogatu zuen, eta pasteurizazioa asmatu zuen. Metodo horrek ahalbidetzen du mikrobioak likidoetan kontrolatzea, esnean adibidez",
    "eventYear": "1822",
    "image": "https://calendario-cientifico-escolar.github.io/images/personajes/361.png"
}