{
    "lang": "astu",
    "year": 2021,
    "month": 7,
    "day": 1,
    "title": "1 de xunetu de 1935",
    "body": " Naci\u00f3 la bi\u00f3loga y ocean\u00f3grafa Josefina Castellv\u00ed. Foi la primer espa\u00f1ola en participar nuna espedici\u00f3n internacional en L\u2019Ant\u00e1rtida. Collabor\u00f3 na instalaci\u00f3n de la primer base ant\u00e1rtica espa\u00f1ola",
    "eventYear": "1935",
    "image": "https://calendario-cientifico-escolar.github.io/images/personajes/182.png"
}