{
    "lang": "cat",
    "year": 2021,
    "month": 4,
    "day": 10,
    "title": "10 de abril de 2011",
    "body": " Un estudi de l'IGME, CIATF i les Universitats Complutense i de Lisboa va descobrir dip\u00f2sits de tsunamis a Tenerife. Els tsunamis van provocar onades de m\u00e9s de 50 metres d'altura i van estar associats a la destrucci\u00f3 de l'edifici volc\u00e0nic de Las Ca\u00f1adas, anterior a l'actual Teide",
    "eventYear": "2011",
    "image": "https://calendario-cientifico-escolar.github.io/images/personajes/100.png"
}