{
    "lang": "cat",
    "year": 2021,
    "month": 4,
    "day": 2,
    "title": "2 de abril de 1618",
    "body": " Va n\u00e9ixer el f\u00edsic Francesco Grimaldi. Va descobrir la difracci\u00f3 de la llum",
    "eventYear": "1618",
    "image": "https://calendario-cientifico-escolar.github.io/images/personajes/92.png"
}