{
    "lang": "cat",
    "year": 2021,
    "month": 4,
    "day": 21,
    "title": "21 de abril de 1838",
    "body": " Va n\u00e9ixer el conservacionista John Muir. Va defensar l'establiment dels parcs nacionals Sequonia i Yosemite",
    "eventYear": "1838",
    "image": "https://calendario-cientifico-escolar.github.io/images/personajes/111.png"
}