{
    "lang": "cat",
    "year": 2021,
    "month": 4,
    "day": 24,
    "title": "24 de abril de 2013",
    "body": " IBM va desenvolupar un robot que combina telepres\u00e8ncia i tecnologies de realitat augmentada per ajudar en projectes d'enginyeria en \u00e0rees remotes",
    "eventYear": "2013",
    "image": "https://calendario-cientifico-escolar.github.io/images/personajes/114.png"
}