{
    "lang": "cat",
    "year": 2021,
    "month": 4,
    "day": 25,
    "title": "25 de abril de 1945",
    "body": " Va n\u00e9ixer l'embri\u00f2loga Jean Marian Purdy. Va ser una de les responsables del desenvolupament de la fecundaci\u00f3 in vitro",
    "eventYear": "1945",
    "image": "https://calendario-cientifico-escolar.github.io/images/personajes/115.png"
}