{
    "lang": "arag",
    "year": 2021,
    "month": 5,
    "day": 31,
    "title": "31 de mayo de 1903",
    "body": " Lo fisico Konstantin Tsiolkovsky proposa per primer vegada la posibilidat de que las personas puedan viachar ta lo espacio fendo servir codetes",
    "eventYear": "1903",
    "image": "https://calendario-cientifico-escolar.github.io/images/personajes/151.png"
}