{
    "lang": "gal",
    "year": 2021,
    "month": 9,
    "day": 29,
    "title": "29 de setembro de 1938",
    "body": " Naceu o f\u00edsico Enrico Fermi. En 1938, recibiu o Premio Nobel de F\u00edsica polos seus traballos sobre radioactividade inducida. Catro anos despois, realizou a primeira reacci\u00f3n nuclear de orixe humana",
    "eventYear": "1938",
    "image": "https://calendario-cientifico-escolar.github.io/images/personajes/272.png"
}