{
    "lang": "gal",
    "year": 2021,
    "month": 9,
    "day": 3,
    "title": "3 de setembro de 1938",
    "body": " Naceu o qu\u00edmico Ry\u014dji Noyori. Ga\u00f1ou o Premio Nobel polas s\u00faas investigaci\u00f3ns sobre a cat\u00e1lise. Os seus m\u00e9todos \u00fasanse, por exemplo, para a produci\u00f3n de mentol",
    "eventYear": "1938",
    "image": "https://calendario-cientifico-escolar.github.io/images/personajes/246.png"
}