{
    "lang": "cat",
    "year": 2021,
    "month": 10,
    "day": 1,
    "title": "1 de octubre de 1883",
    "body": " Va tenir lloc el primer assaig de comunicaci\u00f3 per tel\u00e8fon a Espanya. La l\u00ednia estava entre el Palau Real i els Ministeris a Madrid",
    "eventYear": "1883",
    "image": "https://calendario-cientifico-escolar.github.io/images/personajes/274.png"
}