{
    "lang": "cat",
    "year": 2021,
    "month": 10,
    "day": 11,
    "title": "11 de octubre de 1755",
    "body": " Va n\u00e9ixer el qu\u00edmic Fausto Delhuyar. Al costat del seu germ\u00e0 Juan Jos\u00e9, tamb\u00e9 qu\u00edmic, van ser els primers a a\u00efllar el wolframi (nombre at\u00f2mic 74 a la Taula Peri\u00f2dica). Aquest metall \u00e9s molt esc\u00e0s i molt cobejat per les seves m\u00faltiples aplicacions",
    "eventYear": "1755",
    "image": "https://calendario-cientifico-escolar.github.io/images/personajes/284.png"
}