{
    "lang": "cat",
    "year": 2021,
    "month": 10,
    "day": 14,
    "title": "14 de octubre de 1865",
    "body": " Va n\u00e9ixer la genetista Edith Rebecca Saunders. Va jugar un paper important en el redescobriment de les lleis de l'her\u00e8ncia mendeliana i la comprensi\u00f3 de la gen\u00e8tica de les plantes",
    "eventYear": "1865",
    "image": "https://calendario-cientifico-escolar.github.io/images/personajes/287.png"
}