{
    "lang": "cat",
    "year": 2021,
    "month": 10,
    "day": 16,
    "title": "16 de octubre de 1969",
    "body": " Do\u00f1ana es va convertir en Parc Nacional. El seu aiguamoll \u00e9s lloc de pas, cria i hivernaci\u00f3 per a milers d'aus europees i africanes",
    "eventYear": "1969",
    "image": "https://calendario-cientifico-escolar.github.io/images/personajes/289.png"
}