{
    "lang": "en",
    "year": 2021,
    "month": 3,
    "day": 26,
    "title": "March 26, 1953",
    "body": " Researcher Jonas Salk announced the discovery of the polio vaccine. Thanks to vaccination, this infectious disease, known as infantile paralysis, has been eradicated from Europe, America, Oceania, and Africa",
    "eventYear": "1953",
    "image": "https://calendario-cientifico-escolar.github.io/images/personajes/85.png"
}