{
    "lang": "eus",
    "year": 2021,
    "month": 5,
    "day": 3,
    "title": "1910/5/3",
    "body": " Anne Strachan Robertson arkeologoa jaio zen. Ezaguna da Antoninoren harresiari eta erromatar inperioko monetei buruz egin dituen azterlanengatik",
    "eventYear": "1910",
    "image": "https://calendario-cientifico-escolar.github.io/images/personajes/123.png"
}