{
    "lang": "gal",
    "year": 2021,
    "month": 10,
    "day": 27,
    "title": "27 de outubro de 1904",
    "body": " Philip Downing inventou o apartado de correos, a\u00ednda en uso na actualidade",
    "eventYear": "1904",
    "image": "https://calendario-cientifico-escolar.github.io/images/personajes/300.png"
}