{
    "lang": "gal",
    "year": 2021,
    "month": 10,
    "day": 30,
    "title": "30 de outubro de 1900",
    "body": " Naceu o cient\u00edfico Ragnar Granit. Ga\u00f1ou o Premio Nobel polos seus descubrimentos dos procesos fisiol\u00f3xicos e qu\u00edmicos no ollo",
    "eventYear": "1900",
    "image": "https://calendario-cientifico-escolar.github.io/images/personajes/303.png"
}