{
    "lang": "gal",
    "year": 2021,
    "month": 10,
    "day": 5,
    "title": "5 de outubro de 1963",
    "body": " Naceu o microbi\u00f3logo Francisco Juan Mart\u00ednez Mojica. Descubriu as secuencias repetidas CRISPR en arqueas. A tecnolox\u00eda CRISPR-Cas de edici\u00f3n xen\u00e9tica bas\u00e9ase en parte no devandito descubrimento",
    "eventYear": "1963",
    "image": "https://calendario-cientifico-escolar.github.io/images/personajes/278.png"
}