{
    "lang": "gal",
    "year": 2021,
    "month": 1,
    "day": 9,
    "title": "9 de xaneiro de 1923",
    "body": " O inventor Juan de la Cierva utilizou con \u00e9xito o autoxiro. Esta aeronave \u00e9 unha mestura de avi\u00f3n e helic\u00f3ptero",
    "eventYear": "1923",
    "image": "https://calendario-cientifico-escolar.github.io/images/personajes/9.png"
}