{
    "lang": "eus",
    "year": 2021,
    "month": 9,
    "day": 10,
    "title": "1984/9/10",
    "body": " Aztarna genetikoaren teknika abian jarri zen, pertsonak DNAren arabera identifikatzea ahalbidetzen duena. Pixka bat geroago, teknika hori kriminologian erabiltzen hasi zen",
    "eventYear": "1984",
    "image": "https://calendario-cientifico-escolar.github.io/images/personajes/253.png"
}