{
    "lang": "cat",
    "year": 2021,
    "month": 9,
    "day": 11,
    "title": "11 de setembre de 1942",
    "body": " Va n\u00e9ixer l'economista i historiadora econ\u00f2mica Deirdre McCloskey. Les seves investigacions inclouen l'estudi dels or\u00edgens del m\u00f3n modern, el mal \u00fas de la significaci\u00f3 estad\u00edstica en l'economia i altres ci\u00e8ncies, i l'estudi del capitalisme",
    "eventYear": "1942",
    "image": "https://calendario-cientifico-escolar.github.io/images/personajes/254.png"
}