{
    "lang": "es",
    "year": 2021,
    "month": 9,
    "day": 13,
    "title": "13 de septiembre de 1956",
    "body": " La empresa IBM present\u00f3 el primer ordenador comercial que utilizaba almacenamiento en disco",
    "eventYear": "1956",
    "image": "https://calendario-cientifico-escolar.github.io/images/personajes/256.png"
}