{
    "lang": "es",
    "year": 2021,
    "month": 9,
    "day": 14,
    "title": "14 de septiembre de 1849",
    "body": " Naci\u00f3 el fisi\u00f3logo y Premio Nobel Iv\u00e1n P\u00e1vlov. Describi\u00f3 en perros el modelo de est\u00edmulo-respuesta o condicionamiento de P\u00e1vlov",
    "eventYear": "1849",
    "image": "https://calendario-cientifico-escolar.github.io/images/personajes/257.png"
}