{
    "lang": "gal",
    "year": 2021,
    "month": 9,
    "day": 15,
    "title": "15 de setembro de 1885",
    "body": " Constantin Fahlberg patentou a sacarina. Este adozante sintetizouse por primeira vez a partir de derivados do alcatr\u00e1n de hulla",
    "eventYear": "1885",
    "image": "https://calendario-cientifico-escolar.github.io/images/personajes/258.png"
}