{
    "lang": "astu",
    "year": 2021,
    "month": 9,
    "day": 1,
    "title": "1 de setiembre de 1914",
    "body": " Morri\u00f3 Martha, el postrer palombu migratoriu (Ectopistes migratorius). Ten\u00eda 29 a\u00f1os y viv\u00eda en cautivid\u00e1 nel zool\u00f3xicu de Cincinnati (EE. XX.). En nam\u00e1s un sieglu pas\u00f3 de ser el p\u00e1xaru m\u00e1s abondosu de Norteam\u00e9rica a desaniciase",
    "eventYear": "1914",
    "image": "https://calendario-cientifico-escolar.github.io/images/personajes/244.png"
}