{
    "lang": "gal",
    "year": 2021,
    "month": 9,
    "day": 26,
    "title": "26 de setembro de 2013",
    "body": " O Curiosity Rover da NASA detectou unha gran cantidade de auga de f\u00e1cil acceso no cr\u00e1ter Gale de Marte",
    "eventYear": "2013",
    "image": "https://calendario-cientifico-escolar.github.io/images/personajes/269.png"
}