{
    "lang": "cat",
    "year": 2021,
    "month": 9,
    "day": 27,
    "title": "27 de setembre de 1818",
    "body": " Va n\u00e9ixer l'inventor Cosme Garc\u00eda. Va ser el primer espanyol que va patentar un prototip de submar\u00ed. Un cop constru\u00eft, aquest submergible va ser provat amb \u00e8xit al port d'Alacant el 1860",
    "eventYear": "1818",
    "image": "https://calendario-cientifico-escolar.github.io/images/personajes/270.png"
}