{
    "lang": "en",
    "year": 2021,
    "month": 9,
    "day": 27,
    "title": "September 27, 1818",
    "body": " Inventor Cosme Garc\u00eda was born. He was the first Spanish to patent a submarine prototype. Once built, this submersible was successfully tested in the port of Alicante in 1860",
    "eventYear": "1818",
    "image": "https://calendario-cientifico-escolar.github.io/images/personajes/270.png"
}