{
    "lang": "astu",
    "year": 2021,
    "month": 9,
    "day": 3,
    "title": "3 de setiembre de 1938",
    "body": " Naci\u00f3\u2019l qu\u00edmicu Ry\u014dji Noyori. Gan\u00f3\u2019l Premiu Nobel poles sos investigaciones sobre la cat\u00e1lisis. Los sos m\u00e9todos \u00fasense, por exemplu, pa la producci\u00f3n de mentol",
    "eventYear": "1938",
    "image": "https://calendario-cientifico-escolar.github.io/images/personajes/246.png"
}