{
    "lang": "astu",
    "year": 2021,
    "month": 9,
    "day": 5,
    "title": "5 de setiembre de 1885",
    "body": " Instal\u00f3se la primer gasolinera. Foi nun garaxe d\u2019Indiana (Estaos Xun\u00edos)",
    "eventYear": "1885",
    "image": "https://calendario-cientifico-escolar.github.io/images/personajes/248.png"
}