{
    "lang": "gal",
    "year": 2021,
    "month": 9,
    "day": 7,
    "title": "7 de setembro de 2016",
    "body": " Investigadores do IGME, o Instituto de Ciencias do Mar (CSIC) e a Universidade das Palmas de Gran Canaria descubriron que a illa de El Hierro perdeu o 40% do seu volume durante un enorme derrubamento de terra. Este gran corremento tivo lugar hai 80.000 anos",
    "eventYear": "2016",
    "image": "https://calendario-cientifico-escolar.github.io/images/personajes/250.png"
}