{
    "lang": "arag",
    "year": 2021,
    "month": 9,
    "day": 8,
    "title": "8 de setiembre de 1871",
    "body": " Naixe la inventora y pianista Mary Elizabeth Hallock-Greenewalt. Las suyas patents van permitir lo desenrollo de Sarabet, un \u00aborgano de color\u00bb. Este estrumento emitiba luces de colors con intensidatz y matices que yeran sincronizadas con a mosica",
    "eventYear": "1871",
    "image": "https://calendario-cientifico-escolar.github.io/images/personajes/251.png"
}