{
    "lang": "cat",
    "year": 2021,
    "month": 6,
    "day": 21,
    "title": "21 de juny de 1997",
    "body": " Es va instaurar el Dia Internacional de l'Esclerosi Lateral Amiotr\u00f2fica (ELA). Est\u00e0 impulsat per associacions de pacients de tot el m\u00f3n i t\u00e9 com a objectiu informar i sensibilitzar sobre aquesta malaltia encara incurable",
    "eventYear": "1997",
    "image": "https://calendario-cientifico-escolar.github.io/images/personajes/172.png"
}