{
    "lang": "es",
    "year": 2021,
    "month": 12,
    "day": 10,
    "title": "10 de diciembre de 1823",
    "body": " La paleont\u00f3loga Mary Anning descubri\u00f3 el primer esqueleto completo de un plesiosaurio. Este gran reptil marino vivi\u00f3 a principios del Jur\u00e1sico",
    "eventYear": "1823",
    "image": "https://calendario-cientifico-escolar.github.io/images/personajes/344.png"
}