{
    "lang": "en",
    "year": 2021,
    "month": 12,
    "day": 10,
    "title": "December 10, 1823",
    "body": " Paleontologist Mary Anning discovered the first complete skeleton of a plesiosaur. This large marine reptile lived in the Early Jurassic",
    "eventYear": "1823",
    "image": "https://calendario-cientifico-escolar.github.io/images/personajes/344.png"
}