{
    "lang": "gal",
    "year": 2021,
    "month": 12,
    "day": 14,
    "title": "14 de decembro de 1911",
    "body": " A expedici\u00f3n norueguesa dirixida por Roald Amundsen chegou ao Polo Sur. Por se o equipo non consegu\u00eda regresar, deixaron al\u00ed unha tenda cunha carta no seu interior para demostrar o seu logro",
    "eventYear": "1911",
    "image": "https://calendario-cientifico-escolar.github.io/images/personajes/348.png"
}