{
    "lang": "astu",
    "year": 2021,
    "month": 12,
    "day": 17,
    "title": "17 d\u2019avientu de 2014",
    "body": " Un estudiu del IXME y les Universidaes de Barcelona y Harvard amos\u00f3 la esistencia de \u00abgambes de tierra\u00bb n\u2019\u00c1lava. Estos crust\u00e1ceos vivieron va 105 millones d\u2019a\u00f1os y quedaron calten\u00edos n\u2019\u00e1mbare",
    "eventYear": "2014",
    "image": "https://calendario-cientifico-escolar.github.io/images/personajes/351.png"
}