{
    "lang": "en",
    "year": 2021,
    "month": 12,
    "day": 18,
    "title": "December 18, 2019",
    "body": " A new species of a parasite in marsupials was described. The name is Theileria lupei in recognition of the veterinarian Guadalupe Mir\u00f3, for her contribution to the field of parasitology",
    "eventYear": "2019",
    "image": "https://calendario-cientifico-escolar.github.io/images/personajes/352.png"
}