{
    "lang": "cat",
    "year": 2021,
    "month": 12,
    "day": 1,
    "title": "1 de desembre de 1913",
    "body": " Va n\u00e9ixer la psic\u00f2loga Mary Ainsworth. Al costat de John Bowlby, van desenvolupar la teoria de l'aferrament",
    "eventYear": "1913",
    "image": "https://calendario-cientifico-escolar.github.io/images/personajes/335.png"
}