{
    "lang": "eus",
    "year": 2021,
    "month": 12,
    "day": 2,
    "title": "1942/12/2",
    "body": " Enrico Fermik Chicago Pile-1 jarri zuen martxan, munduko lehen erreaktore nuklear artifiziala. Uraniozko pila bat eta grafitozko blokeak erabili zituzten erreaktorea osatzeko",
    "eventYear": "1942",
    "image": "https://calendario-cientifico-escolar.github.io/images/personajes/336.png"
}