{
    "lang": "cat",
    "year": 2021,
    "month": 12,
    "day": 30,
    "title": "30 de desembre de 1930",
    "body": " Va n\u00e9ixer la qu\u00edmica i farmac\u00e8utica Youyou teu. Va rebre el Premi Nobel per descobrir una nova ter\u00e0pia contra la mal\u00e0ria",
    "eventYear": "1930",
    "image": "https://calendario-cientifico-escolar.github.io/images/personajes/364.png"
}