{
    "lang": "astu",
    "year": 2021,
    "month": 12,
    "day": 31,
    "title": "31 d\u2019avientu de 2019",
    "body": " La Oficina de la OMS en China recibi\u00f3 un avisu de dellos casos de neumon\u00eda de causa desconocida na ciud\u00e1 de Wuhan. Darr\u00e9u, determin\u00f3se que\u2019l causante de la enfermed\u00e1 yera\u2019l coronavirus SARS-CoV-2",
    "eventYear": "2019",
    "image": "https://calendario-cientifico-escolar.github.io/images/personajes/365.png"
}