{
    "lang": "arag",
    "year": 2021,
    "month": 12,
    "day": 3,
    "title": "3 d'aviento de 1842",
    "body": " Naixe la quimica y ecologa Ellen Swallow Richards.  Fue una d'as fundadoras d'a hichiene ambiental, fase previa a la ecoloch\u00eda moderna",
    "eventYear": "1842",
    "image": "https://calendario-cientifico-escolar.github.io/images/personajes/337.png"
}