{
    "lang": "cat",
    "year": 2021,
    "month": 12,
    "day": 5,
    "title": "5 de desembre de 1854",
    "body": " Aaron H. Allen va patentar la butaca amb seient abatible. Avui dia, aquest tipus de butaca s'usa en gaireb\u00e9 tots els teatres i auditoris del m\u00f3n",
    "eventYear": "1854",
    "image": "https://calendario-cientifico-escolar.github.io/images/personajes/339.png"
}