{
    "lang": "en",
    "year": 2021,
    "month": 12,
    "day": 9,
    "title": "December 9, 1979",
    "body": " A disease was eradicated for the first time. It was smallpox, and it was achieved thanks to vaccination",
    "eventYear": "1979",
    "image": "https://calendario-cientifico-escolar.github.io/images/personajes/343.png"
}