{
    "lang": "astu",
    "year": 2021,
    "month": 3,
    "day": 18,
    "title": "18 de marzu de 1987",
    "body": " Anunci\u00f3se\u2019l descubrimientu de la superconductivid\u00e1 a alta temperatura. Foi nun congresu cient\u00edficu en Nueva York",
    "eventYear": "1987",
    "image": "https://calendario-cientifico-escolar.github.io/images/personajes/77.png"
}