{
    "lang": "en",
    "year": 2021,
    "month": 8,
    "day": 20,
    "title": "August 20, 1994",
    "body": " The American continent was declared free from poliomyelitis thanks to vaccination campaigns",
    "eventYear": "1994",
    "image": "https://calendario-cientifico-escolar.github.io/images/personajes/232.png"
}