{
    "lang": "en",
    "year": 2021,
    "month": 8,
    "day": 27,
    "title": "August 27, 1956",
    "body": " The Calder Hall power plant was the first nuclear power plant to supply electricity to civilians in the UK",
    "eventYear": "1956",
    "image": "https://calendario-cientifico-escolar.github.io/images/personajes/239.png"
}