{
    "lang": "en",
    "year": 2021,
    "month": 8,
    "day": 7,
    "title": "August 7, 1933",
    "body": " Political scientist Elinor Ostrom was born. She was the first woman to be awarded the Nobel Prize in Economics, in 2009. She studied how people interact to maintain long-term levels of production of common resources",
    "eventYear": "1933",
    "image": "https://calendario-cientifico-escolar.github.io/images/personajes/219.png"
}