{
    "lang": "en",
    "year": 2021,
    "month": 8,
    "day": 8,
    "title": "August 8, 1948",
    "body": " Engineer and cosmonaut Svetlana Sav\u00edtskaya was born. She was the first woman to make two trips and walks to the outer space",
    "eventYear": "1948",
    "image": "https://calendario-cientifico-escolar.github.io/images/personajes/220.png"
}