{
    "lang": "gal",
    "year": 2021,
    "month": 3,
    "day": 19,
    "title": "19 de marzo de 2019",
    "body": " Un estudo internacional con participaci\u00f3n do CSIC determinou que os oc\u00e9anos absorben o 31% do CO2 producido pola actividade humana",
    "eventYear": "2019",
    "image": "https://calendario-cientifico-escolar.github.io/images/personajes/78.png"
}