{
    "lang": "gal",
    "year": 2021,
    "month": 3,
    "day": 3,
    "title": "3 de marzo de 1886",
    "body": " Naceu a educadora e pedagoga Helen Parkhurst. Creou o Plan Dalton. Este plan bas\u00e9ase na ausencia de materias e no uso de gu\u00edas de investigaci\u00f3n no canto de libros de texto. A clase conv\u00e9rtese nun laboratorio onde o alumnado completa a aprendizaxe \u00e1 que se compromete mediante un \u00abcontrato\u00bb co profesorado",
    "eventYear": "1886",
    "image": "https://calendario-cientifico-escolar.github.io/images/personajes/62.png"
}