{
    "lang": "gal",
    "year": 2021,
    "month": 3,
    "day": 4,
    "title": "4 de marzo de 1877",
    "body": " Naceu o etn\u00f3logo Robert Fritz Graebner. Desenvolveu a teor\u00eda de Kulturkreis ou C\u00edrculo Cultural. Esta teor\u00eda postulaba a difusi\u00f3n de culturas primitivas derivadas dun s\u00f3 tipo arcaico",
    "eventYear": "1877",
    "image": "https://calendario-cientifico-escolar.github.io/images/personajes/63.png"
}