{
    "lang": "en",
    "year": 2021,
    "month": 12,
    "day": 16,
    "title": "December 16, 1954",
    "body": " Tracy Hall obtained the first synthetic diamonds in the General Electrics laboratories",
    "eventYear": "1954",
    "image": "https://calendario-cientifico-escolar.github.io/images/personajes/350.png"
}