{
    "lang": "en",
    "year": 2021,
    "month": 12,
    "day": 26,
    "title": "December 26, 1780",
    "body": " Mathematician and astronomer Mary Fairfax Greig Somerville was born. She proposed the existence of a planet that altered the orbit of Uranus. This planet was later discovered to be Neptune",
    "eventYear": "1780",
    "image": "https://calendario-cientifico-escolar.github.io/images/personajes/360.png"
}