{
    "lang": "eus",
    "year": 2021,
    "month": 3,
    "day": 9,
    "title": "1961/3/9",
    "body": " Sputnik 9k Chernushka txakur emea espaziora eraman zuen. Akuri bat eta sagu bat ere eraman zuten, baita Ivan Ivanovich izeneko proba-maniki bat ere. Lurrera bueltan, manikia jaurtigailu batez atera zen, eta jausgailu baten laguntzarekin lehorreratu. Gainerakoak onik iritsi ziren, kapsularen barruan",
    "eventYear": "1961",
    "image": "https://calendario-cientifico-escolar.github.io/images/personajes/68.png"
}