{
    "lang": "arag",
    "year": 2021,
    "month": 2,
    "day": 24,
    "title": "24 de febrero de 1938",
    "body": " La empresa DuPont encomienza la fabricaci\u00f3n d'o primer producto de nailon destinau a la venda: un cepillo de dients. Dica alavez se gosaban fer con pelo d'o cuello d'os cochins",
    "eventYear": "1938",
    "image": "https://calendario-cientifico-escolar.github.io/images/personajes/55.png"
}