{
    "lang": "gal",
    "year": 2021,
    "month": 11,
    "day": 19,
    "title": "19 de novembro de 2006",
    "body": " A compa\u00f1\u00eda xaponesa de videoxogos Nintendo sacou ao mercado a consola Wii",
    "eventYear": "2006",
    "image": "https://calendario-cientifico-escolar.github.io/images/personajes/323.png"
}