{
    "lang": "gal",
    "year": 2021,
    "month": 11,
    "day": 20,
    "title": "20 de novembro de 1985",
    "body": " O cirurxi\u00e1n Leonard Lee Bailey realizou o primeiro transplante de coraz\u00f3n exitoso nun acabado de nacer",
    "eventYear": "1985",
    "image": "https://calendario-cientifico-escolar.github.io/images/personajes/324.png"
}