{
    "lang": "gal",
    "year": 2021,
    "month": 11,
    "day": 21,
    "title": "21 de novembro de 2013",
    "body": " O observatorio IceCube do Polo Sur detectou neutrinos de alta enerx\u00eda de orixe extraterrestre. A s\u00faa procedencia sit\u00faase f\u00f3ra do noso sistema solar",
    "eventYear": "2013",
    "image": "https://calendario-cientifico-escolar.github.io/images/personajes/325.png"
}