{
    "lang": "gal",
    "year": 2021,
    "month": 11,
    "day": 25,
    "title": "25 de novembro de 1884",
    "body": " Patentouse un m\u00e9todo para producir leite evaporado, para poder conservar o leite m\u00e1is tempo. Ese mesmo d\u00eda, patentouse unha m\u00e1quina para esterilizar as latas en que se conservaba este leite",
    "eventYear": "1884",
    "image": "https://calendario-cientifico-escolar.github.io/images/personajes/329.png"
}