{
    "lang": "gal",
    "year": 2021,
    "month": 11,
    "day": 7,
    "title": "7 de novembro de 1867",
    "body": " Naceu a qu\u00edmica e f\u00edsica Marie Curie. Acu\u00f1ou o termo radioactividade e foi a primeira persoa en recibir dous premios Nobel en distintas especialidades (F\u00edsica e Qu\u00edmica)",
    "eventYear": "1867",
    "image": "https://calendario-cientifico-escolar.github.io/images/personajes/311.png"
}