{
    "lang": "cat",
    "year": 2021,
    "month": 5,
    "day": 14,
    "title": "14 de maig de 1899",
    "body": " Va n\u00e9ixer la bi\u00f2loga Charlotte Auerbach. Es va especialitzar en zoologia i gen\u00e8tica, i va contribuir a descobrir la mutag\u00e8nesi i els seus efectes. Es va fer c\u00e8lebre el 1942 quan va posar de manifest, juntament amb Alfred Joseph Clark i J. M. Robson, que el gas mostassa podia causar mutacions",
    "eventYear": "1899",
    "image": "https://calendario-cientifico-escolar.github.io/images/personajes/134.png"
}