{
    "lang": "cat",
    "year": 2021,
    "month": 5,
    "day": 17,
    "title": "17 de maig de 1749",
    "body": " Va n\u00e9ixer l'immun\u00f2leg Edward Jenner. Va aconseguir la primera vacuna de la hist\u00f2ria, concretament contra la verola",
    "eventYear": "1749",
    "image": "https://calendario-cientifico-escolar.github.io/images/personajes/137.png"
}