{
    "lang": "cat",
    "year": 2021,
    "month": 5,
    "day": 3,
    "title": "3 de maig de 1910",
    "body": " Va n\u00e9ixer l'arque\u00f2loga Anne Strachan Robertson. \u00c9s coneguda pels seus estudis del mur d'Antonino i les monedes imperials romanes",
    "eventYear": "1910",
    "image": "https://calendario-cientifico-escolar.github.io/images/personajes/123.png"
}