{
    "lang": "cat",
    "year": 2021,
    "month": 5,
    "day": 7,
    "title": "7 de maig de 1954",
    "body": " Va comen\u00e7ar la construcci\u00f3 del Pont Mackinac a Michigan. Va ser el pont penjant m\u00e9s llarg del m\u00f3n en el seu moment",
    "eventYear": "1954",
    "image": "https://calendario-cientifico-escolar.github.io/images/personajes/127.png"
}