{
    "lang": "cat",
    "year": 2021,
    "month": 2,
    "day": 14,
    "title": "14 de febrer de 2005",
    "body": " Un equip d'investigadors del CSIC va obtenir i va seq\u00fcenciar ADN d'un individu neandertal procedent del jaciment d'El Sidr\u00f3n",
    "eventYear": "2005",
    "image": "https://calendario-cientifico-escolar.github.io/images/personajes/45.png"
}