{
    "lang": "cat",
    "year": 2021,
    "month": 2,
    "day": 24,
    "title": "24 de febrer de 1938",
    "body": " L'empresa DuPont va comen\u00e7ar la fabricaci\u00f3 del primer producte de nil\u00f3 destinat a la venda: un raspall de dents. Fins llavors es fabricaven principalment amb p\u00e8l del coll dels porcs",
    "eventYear": "1938",
    "image": "https://calendario-cientifico-escolar.github.io/images/personajes/55.png"
}