{
    "lang": "cat",
    "year": 2021,
    "month": 2,
    "day": 4,
    "title": "4 de febrer de 1896",
    "body": " Thaddeus Cahill va sol\u00b7licitar la patent del telharmonium, el primer instrument musical completament electr\u00f2nic i polif\u00f2nic. El primer prototip pesava 200 tones i tenia una longitud de 18 metres de llarg",
    "eventYear": "1896",
    "image": "https://calendario-cientifico-escolar.github.io/images/personajes/35.png"
}