{
    "lang": "arag",
    "year": 2021,
    "month": 1,
    "day": 17,
    "title": "17 de chinero de 1897",
    "body": " Naixe la fisica Caroline Emilie Bleeker. Los suyos estudios mas conoixius incluyen lo disenyo y la fabricaci\u00f3n d'estrumentos opticos",
    "eventYear": "1897",
    "image": "https://calendario-cientifico-escolar.github.io/images/personajes/17.png"
}