{
    "lang": "arag",
    "year": 2021,
    "month": 1,
    "day": 30,
    "title": "30 de chinero de 1975",
    "body": " Lo escultor Ern\u0151 Rubik solicita la patent d'o \u00abcubo machico\u00bb. Este invento se conoix actualment como lo cubo de Rubik",
    "eventYear": "1975",
    "image": "https://calendario-cientifico-escolar.github.io/images/personajes/30.png"
}