{
    "lang": "astu",
    "year": 2021,
    "month": 11,
    "day": 22,
    "title": "22 de payares de 2013",
    "body": " Un equipu d\u2019investigaci\u00f3n de la Universid\u00e1 de B\u00f6nn afay\u00f3 un xen d\u2019orixe neandertal en persones actuales. Tr\u00e1tase d\u2019un xen de la inmunid\u00e1 que fai posible reconocer intrusos peligrosos y defendese \u00e9nte ellos pente medies d\u2019una respuesta inmune",
    "eventYear": "2013",
    "image": "https://calendario-cientifico-escolar.github.io/images/personajes/326.png"
}