{
    "lang": "es",
    "year": 2021,
    "month": 6,
    "day": 15,
    "title": "15 de junio de 1962",
    "body": " Se descubri\u00f3 que la talidomida causaba deformaciones en el desarrollo fetal. Este sedante se utilizaba para calmar las n\u00e1useas durante los primeros meses de embarazo",
    "eventYear": "1962",
    "image": "https://calendario-cientifico-escolar.github.io/images/personajes/166.png"
}