{
    "lang": "es",
    "year": 2021,
    "month": 6,
    "day": 25,
    "title": "25 de junio de 1866",
    "body": " Naci\u00f3 Elo\u00edsa D\u00edaz, la primera m\u00e9dica de Am\u00e9rica del Sur. Como directora del Servicio M\u00e9dico Escolar de Chile, Elo\u00edsa logr\u00f3 la vacunaci\u00f3n de gran parte del alumnado y luch\u00f3 contra el raquitismo y la tuberculosis",
    "eventYear": "1866",
    "image": "https://calendario-cientifico-escolar.github.io/images/personajes/176.png"
}