{
    "lang": "es",
    "year": 2021,
    "month": 6,
    "day": 6,
    "title": "6 de junio de 1907",
    "body": " Se lanz\u00f3 Persil al mercado. Fue el primer detergente de ropa de acci\u00f3n autom\u00e1tica",
    "eventYear": "1907",
    "image": "https://calendario-cientifico-escolar.github.io/images/personajes/157.png"
}