{
    "lang": "cat",
    "year": 2021,
    "month": 7,
    "day": 16,
    "title": "16 de juliol de 2020",
    "body": " La missi\u00f3 Solar Orbiter, de l'Ag\u00e8ncia Espacial Europea (ESA) i la NASA, amb participaci\u00f3 del CSIC, va obtenir el primer mapa magn\u00e8tic del Sol. El camp magn\u00e8tic solar \u00e9s responsable dels fen\u00f2mens que observem al Sol, com les taques, les tempestes o el vent solar",
    "eventYear": "2020",
    "image": "https://calendario-cientifico-escolar.github.io/images/personajes/197.png"
}