{
    "lang": "es",
    "year": 2021,
    "month": 7,
    "day": 16,
    "title": "16 de julio de 2020",
    "body": " La misi\u00f3n Solar Orbiter, de la Agencia Espacial Europea (ESA) y la NASA, con participaci\u00f3n del CSIC, obtuvo el primer mapa magn\u00e9tico del Sol. El campo magn\u00e9tico solar es responsable de los fen\u00f3menos que observamos en el Sol, como las manchas, las tormentas o el viento solar",
    "eventYear": "2020",
    "image": "https://calendario-cientifico-escolar.github.io/images/personajes/197.png"
}