{
    "lang": "arag",
    "year": 2021,
    "month": 7,
    "day": 18,
    "title": "18 de chuliol de 1881",
    "body": " Naixe la pedagoga y humanista Mar\u00eda de Maeztu. Fue directora d'importants institucions pedagochicas en a ensenyanza de mullers (la Residencia Internacional de Se\u00f1oritas, l'Instituto-Escuela y lo Lyceum Club Femenino). Va treballar pa que las suyas alumnas tenesen una formaci\u00f3n intelectual que fomentase la responsabilidat civil y la participaci\u00f3n igualitaria y integral en a sociedat",
    "eventYear": "1881",
    "image": "https://calendario-cientifico-escolar.github.io/images/personajes/199.png"
}