{
    "lang": "arag",
    "year": 2021,
    "month": 7,
    "day": 1,
    "title": "1 de chuliol de 1935",
    "body": " Naixe la biologa y oceanografa Josefina Castellv\u00ed. Fue la primer espanyola en participar en una expedici\u00f3n internacional en l'Antarctida. Colabor\u00f3 en a instalaci\u00f3n d'a primer base antarctica espanyola",
    "eventYear": "1935",
    "image": "https://calendario-cientifico-escolar.github.io/images/personajes/182.png"
}