{
    "lang": "astu",
    "year": 2021,
    "month": 7,
    "day": 21,
    "title": "21 de xunetu de 2013",
    "body": " Desendolc\u00f3se una piel electr\u00f3nico sensible y flexible qu\u2019imita la piel humano real. Esta piel pue deteutar y responder a niveles de presi\u00f3n estremaos",
    "eventYear": "2013",
    "image": "https://calendario-cientifico-escolar.github.io/images/personajes/202.png"
}