{
    "lang": "gal",
    "year": 2021,
    "month": 7,
    "day": 22,
    "title": "22 de xullo de 1871",
    "body": " Colouse a primeira pedra da ponte ferroviaria Tay (Escocia). Foi a ponte m\u00e1is longa do mundo na s\u00faa \u00e9poca",
    "eventYear": "1871",
    "image": "https://calendario-cientifico-escolar.github.io/images/personajes/203.png"
}