{
    "lang": "eus",
    "year": 2021,
    "month": 7,
    "day": 24,
    "title": "2009/7/24",
    "body": " Canarias Teleskopio Handia inauguratu zen, Roque de los Muchachos-eko Behatokian. Munduko teleskopio optikorik handiena bihurtu zen",
    "eventYear": "2009",
    "image": "https://calendario-cientifico-escolar.github.io/images/personajes/205.png"
}