{
    "lang": "arag",
    "year": 2021,
    "month": 7,
    "day": 26,
    "title": "26 de chuliol de 2005",
    "body": " Se celebra lo primer D\u00eda Internacional pa la defensa d'o ecosistema manglar",
    "eventYear": "2005",
    "image": "https://calendario-cientifico-escolar.github.io/images/personajes/207.png"
}