{
    "lang": "gal",
    "year": 2021,
    "month": 7,
    "day": 26,
    "title": "26 de xullo de 2005",
    "body": " Celebrouse o primeiro D\u00eda Internacional para a Defensa do Ecosistema Mangleiral",
    "eventYear": "2005",
    "image": "https://calendario-cientifico-escolar.github.io/images/personajes/207.png"
}