{
    "lang": "arag",
    "year": 2021,
    "month": 7,
    "day": 27,
    "title": "27 de chuliol de 1995",
    "body": " La profesora Sheila Rowan presenta la suya tesi doctoral sobre las ondas gravitacionals",
    "eventYear": "1995",
    "image": "https://calendario-cientifico-escolar.github.io/images/personajes/208.png"
}