{
    "lang": "en",
    "year": 2021,
    "month": 7,
    "day": 3,
    "title": "July 3, 1865",
    "body": " Professor Mary A. Kingsbury was born. She was in charge of the Erasmus Hall Institute library and became the first school librarian in history",
    "eventYear": "1865",
    "image": "https://calendario-cientifico-escolar.github.io/images/personajes/184.png"
}