{
    "lang": "en",
    "year": 2021,
    "month": 7,
    "day": 5,
    "title": "July 5, 1904",
    "body": " Biologist Ernst Walter Mayr was born. He led the development of Neo-Darwinism, which integrates the theory of evolution and the knowledge in the field of genetics",
    "eventYear": "1904",
    "image": "https://calendario-cientifico-escolar.github.io/images/personajes/186.png"
}