{
    "lang": "es",
    "year": 2021,
    "month": 7,
    "day": 6,
    "title": "6 de julio de 1885",
    "body": " Louis Pasteur administr\u00f3 la vacuna de la rabia a Josef Meister, un ni\u00f1o de 9 a\u00f1os al que hab\u00eda mordido un perro rabioso. Fue una actuaci\u00f3n de riesgo porque Pasteur no ten\u00eda la titulaci\u00f3n de m\u00e9dico y la vacuna no estaba a\u00fan aprobada. Sin embargo, gracias a ello, salv\u00f3 la vida de Josef",
    "eventYear": "1885",
    "image": "https://calendario-cientifico-escolar.github.io/images/personajes/187.png"
}