{
    "lang": "eus",
    "year": 2021,
    "month": 1,
    "day": 11,
    "title": "1907/1/11",
    "body": " Mary Shaw Shorb immunologoa jaio zen. Maryk B12 bitamina aztertzeko teknika bat garatu zuen. Horrekin, anemia kaltegarriari aurre egiten lagundu zuen",
    "eventYear": "1907",
    "image": "https://calendario-cientifico-escolar.github.io/images/personajes/11.png"
}