{
    "lang": "cat",
    "year": 2021,
    "month": 1,
    "day": 12,
    "title": "12 de gener de 1925",
    "body": " Neix el veterinari Miguel Cordero del Campillo. Va ser una autoritat mundial en el camp de la parasitologia. Va tenir un paper clau en el naixement de la Universitat de Le\u00f3n",
    "eventYear": "1925",
    "image": "https://calendario-cientifico-escolar.github.io/images/personajes/12.png"
}