{
    "lang": "astu",
    "year": 2021,
    "month": 1,
    "day": 15,
    "title": "15 de xineru de 1826",
    "body": " Naci\u00f3 l\u2019asistente cient\u00edfica Marie Pasteur. Trabay\u00f3 como asistente y collaboradora de Louis Pasteur, con quien taba casada. El so sofitu foi esencial nos descubrimientos del investigador",
    "eventYear": "1826",
    "image": "https://calendario-cientifico-escolar.github.io/images/personajes/15.png"
}