{
    "lang": "cat",
    "year": 2021,
    "month": 1,
    "day": 16,
    "title": "16 de gener de 1932",
    "body": " Va n\u00e9ixer la zo\u00f2loga Dian Fossey. Va ser una observadora pacient del comportament dels goril\u00b7les i va fundar el Centre d'Investigaci\u00f3 de Karisoke (Rwanda). Aquest centre \u00e9s la major esperan\u00e7a per a la conservaci\u00f3 dels goril\u00b7les de muntanya",
    "eventYear": "1932",
    "image": "https://calendario-cientifico-escolar.github.io/images/personajes/16.png"
}