{
    "lang": "gal",
    "year": 2021,
    "month": 1,
    "day": 16,
    "title": "16 de xaneiro de 1932",
    "body": " Naceu a zo\u00f3loga Dian Fossey. Foi unha observadora paciente do comportamento dos gorilas e fundou o Centro de Investigaci\u00f3n de Karisoke (Ruanda). Este centro \u00e9 a maior esperanza para a conservaci\u00f3n dos gorilas de monta\u00f1a",
    "eventYear": "1932",
    "image": "https://calendario-cientifico-escolar.github.io/images/personajes/16.png"
}