{
    "lang": "eus",
    "year": 2021,
    "month": 1,
    "day": 23,
    "title": "1921/1/23",
    "body": " Marija Gimbutas arkeologoa jaio zen. \"Kurgan hipotesia\" proposatu zuen. Hipotesi horrek arkeologia eta linguistika uztartu zituen, hizkuntza protoindoeuropeoan hitz egiten zuten herrien jatorria kokatzeko",
    "eventYear": "1921",
    "image": "https://calendario-cientifico-escolar.github.io/images/personajes/23.png"
}