{
    "lang": "arag",
    "year": 2021,
    "month": 1,
    "day": 25,
    "title": "25 de chinero de 1235",
    "body": " Posible data de naixencia de Ram\u00f3n Llul. Lo suyo escrito titulau \u0093L'arbol d'a sciencia\u0094 ye lo primer tractau scientifico sobre naturaleza en Espanya",
    "eventYear": "1235",
    "image": "https://calendario-cientifico-escolar.github.io/images/personajes/25.png"
}