{
    "lang": "gal",
    "year": 2021,
    "month": 1,
    "day": 25,
    "title": "25 de xaneiro de 1235",
    "body": " Posible data de nacemento de Ram\u00f3n Llul. O seu escrito titulado A \u00e1rbore da ciencia \u00e9 o primeiro tratado cient\u00edfico sobre natureza en Espa\u00f1a",
    "eventYear": "1235",
    "image": "https://calendario-cientifico-escolar.github.io/images/personajes/25.png"
}