{
    "lang": "gal",
    "year": 2021,
    "month": 1,
    "day": 26,
    "title": "26 de xaneiro de 1941",
    "body": " Naceu a bioqu\u00edmica Joan Elaine Argetsinger Steitz. Ga\u00f1ou sona internacional polos seus descubrimentos sobre o ARN",
    "eventYear": "1941",
    "image": "https://calendario-cientifico-escolar.github.io/images/personajes/26.png"
}