{
    "lang": "eus",
    "year": 2021,
    "month": 1,
    "day": 28,
    "title": "2013/1/28",
    "body": " IBM Sequoia superordenagailuak kalkulu-marka bat hautsi zuen, jet esperimental baterako motor bat modelatu zuelako. Horretarako, milioi bat prozesamendu-nukleo baino gehiagoren laguntza izan zuen",
    "eventYear": "2013",
    "image": "https://calendario-cientifico-escolar.github.io/images/personajes/28.png"
}