{
    "lang": "cat",
    "year": 2021,
    "month": 1,
    "day": 29,
    "title": "29 de gener de 1947",
    "body": " Va n\u00e9ixer la bi\u00f2loga i metgessa Linda Brown Buck. Va guanyar un premi Nobel pel seu descobriment dels receptors de l'olfacte i l'organitzaci\u00f3 del sistema olfactiu",
    "eventYear": "1947",
    "image": "https://calendario-cientifico-escolar.github.io/images/personajes/29.png"
}