{
    "lang": "es",
    "year": 2021,
    "month": 1,
    "day": 29,
    "title": "29 de enero de 1947",
    "body": " Naci\u00f3 la bi\u00f3loga y m\u00e9dica Linda Brown Buck. Gan\u00f3 un premio Nobel por su descubrimiento de los receptores del olfato y la organizaci\u00f3n del sistema olfativo",
    "eventYear": "1947",
    "image": "https://calendario-cientifico-escolar.github.io/images/personajes/29.png"
}