{
    "lang": "eus",
    "year": 2021,
    "month": 1,
    "day": 2,
    "title": "1839/1/2",
    "body": " Louis Daguerre espazioaren lehen argazkia egiten ahalegindu zen. Dagerrotipo bat eta teleskopio bat erabili zituen argazkia egiteko, baina ez zuen arrakastarik izan, argazkia lausotuta atera zelako",
    "eventYear": "1839",
    "image": "https://calendario-cientifico-escolar.github.io/images/personajes/2.png"
}