{
    "lang": "eus",
    "year": 2021,
    "month": 1,
    "day": 30,
    "title": "1975/1/30",
    "body": " Ern\u0151 Rubik eskultoreak \"kubo magikoaren\" patentea eskatu zuen. Gaur egun, Rubiken kuboa esaten zaio asmakizun horri",
    "eventYear": "1975",
    "image": "https://calendario-cientifico-escolar.github.io/images/personajes/30.png"
}