{
    "lang": "arag",
    "year": 2021,
    "month": 1,
    "day": 31,
    "title": "31 de chinero de 1925",
    "body": " Naixe Manuel Jal\u00f3n. Obteni\u00f3 a-saber-las patents, incluyindo estrumentos tant conoixius como la fregona u la ixaringa hipodermica d'un solo emplego",
    "eventYear": "1925",
    "image": "https://calendario-cientifico-escolar.github.io/images/personajes/31.png"
}