{
    "lang": "en",
    "year": 2021,
    "month": 1,
    "day": 3,
    "title": "January 3, 1871",
    "body": " Henry Bradley patented the first margarine. His recipe was made mainly with cottonseed oil and animal fat",
    "eventYear": "1871",
    "image": "https://calendario-cientifico-escolar.github.io/images/personajes/3.png"
}