{
    "lang": "arag",
    "year": 2021,
    "month": 1,
    "day": 8,
    "title": "8 de chinero de 1988",
    "body": " S'inaugura la Base Antarctica Espanyola Juan Carlos I. Esta base scientifica ye chestionada per lo CSIC y se troba en a isla Livingston de l'Antarctida",
    "eventYear": "1988",
    "image": "https://calendario-cientifico-escolar.github.io/images/personajes/8.png"
}