{
    "lang": "astu",
    "year": 2021,
    "month": 1,
    "day": 27,
    "title": "27 de xineru de 1876",
    "body": " L\u2019inxenieru ll\u00e9tricu Elisha Gray solicit\u00f3 la patente del tel\u00e9grafu musical. Foi \u00fan de los primeros instrumentos musicales ll\u00e9tricos",
    "eventYear": "1876",
    "image": "https://calendario-cientifico-escolar.github.io/images/personajes/27.png"
}