{
    "lang": "en",
    "year": 2021,
    "month": 7,
    "day": 19,
    "title": "July 19, 1945",
    "body": " Geneticist Nancy Wexler was born. She collaborated in the discovery of the location of the gene that causes Huntington's disease",
    "eventYear": "1945",
    "image": "https://calendario-cientifico-escolar.github.io/images/personajes/200.png"
}