{
    "lang": "en",
    "year": 2021,
    "month": 10,
    "day": 19,
    "title": "October 19, 1924",
    "body": " Pathologist Rosemary Bamforth was born. She established the link between ship worker cancer deaths and asbestos exposure",
    "eventYear": "1924",
    "image": "https://calendario-cientifico-escolar.github.io/images/personajes/292.png"
}