{
    "lang": "en",
    "year": 2021,
    "month": 4,
    "day": 12,
    "title": "April 12, 1961",
    "body": " Yuri Gagarin became the first human to travel into space. He did it onboard the Soviet spaceflight Vostok 1",
    "eventYear": "1961",
    "image": "https://calendario-cientifico-escolar.github.io/images/personajes/102.png"
}