{
    "lang": "cat",
    "year": 2021,
    "month": 4,
    "day": 13,
    "title": "13 de abril de 2014",
    "body": " L'expedici\u00f3 Subvent de l'IGME va descobrir grans bancs de musclos quimiosint\u00e8tics al voltant de deus de met\u00e0 al Golf de Cadis. Tamb\u00e9 va descobrir nous volcans submarins a Lanzarote",
    "eventYear": "2014",
    "image": "https://calendario-cientifico-escolar.github.io/images/personajes/103.png"
}