{
    "lang": "eus",
    "year": 2021,
    "month": 4,
    "day": 15,
    "title": "1452/4/15",
    "body": " Leonardo da Vinci jaio zen, Errenazimentuko pintore, eskultore, asmatzaile, ingeniari eta arkitekto handia",
    "eventYear": "1452",
    "image": "https://calendario-cientifico-escolar.github.io/images/personajes/105.png"
}