{
    "lang": "cat",
    "year": 2021,
    "month": 4,
    "day": 17,
    "title": "17 de abril de 1887",
    "body": " Va n\u00e9ixer Clodomiro Picado. Va ser pioner en la investigaci\u00f3 sobre serps i els seus verins. Tamb\u00e9 va ser un dels precursors del descobriment de la penicil\u00b7lina",
    "eventYear": "1887",
    "image": "https://calendario-cientifico-escolar.github.io/images/personajes/107.png"
}