{
    "lang": "eus",
    "year": 2021,
    "month": 4,
    "day": 17,
    "title": "1887/4/17",
    "body": " Clodomiro Picado jaio zen. Aitzindaria izan zen sugeei eta haien pozoiei buruzko ikerketan. Penizilinaren aurkikuntzaren aitzindarietako bat ere izan zen",
    "eventYear": "1887",
    "image": "https://calendario-cientifico-escolar.github.io/images/personajes/107.png"
}