{
    "lang": "arag",
    "year": 2021,
    "month": 4,
    "day": 21,
    "title": "21 d'abril de 1838",
    "body": " Naixe lo conservacionista John Muir. Defendi\u00f3 lo establimiento d'os parques nacionals Sequoia y Yosemite",
    "eventYear": "1838",
    "image": "https://calendario-cientifico-escolar.github.io/images/personajes/111.png"
}