{
    "lang": "arag",
    "year": 2021,
    "month": 4,
    "day": 24,
    "title": "24 d'abril de 2013",
    "body": " IBM desenrolla un robot que combina telepresencia y tecnoloch\u00edas de realidat aumentada pa aduyar en prochectos d'inchenyer\u00eda en arias remotas",
    "eventYear": "2013",
    "image": "https://calendario-cientifico-escolar.github.io/images/personajes/114.png"
}