{
    "lang": "gal",
    "year": 2021,
    "month": 4,
    "day": 25,
    "title": "25 de abril de 1945",
    "body": " Naceu a embri\u00f3loga Jean Marian Purdy. Foi unha das responsables do desenvolvemento da fecundaci\u00f3n in vitro",
    "eventYear": "1945",
    "image": "https://calendario-cientifico-escolar.github.io/images/personajes/115.png"
}