{
    "lang": "en",
    "year": 2021,
    "month": 4,
    "day": 26,
    "title": "April 26, 1927",
    "body": " Biologist Anne McLaren was born. She was a pioneer in the study of developmental biology. Her work helped to develop the in vitro fertilization technique",
    "eventYear": "1927",
    "image": "https://calendario-cientifico-escolar.github.io/images/personajes/116.png"
}