{
    "lang": "eus",
    "year": 2021,
    "month": 4,
    "day": 29,
    "title": "1894/4/29",
    "body": " Marietta Blau fisikaria jaio zen. Aitzindaria izan zen partikula atomikoak emultsio fotografikoetako plaken bitartez erregistratu eta identifikatzeko lanetan. Haren lana lagungarri izan zen erreakzio nuklearrak hobeto ulertzeko",
    "eventYear": "1894",
    "image": "https://calendario-cientifico-escolar.github.io/images/personajes/119.png"
}