{
    "lang": "arag",
    "year": 2021,
    "month": 4,
    "day": 7,
    "title": "7 d'abril de 1995",
    "body": " Inauguraci\u00f3n d'a Domus d'A Coru\u00f1a, lo primer museu interactivo de caracter scientifico que tracta lo ser humano d'una forma global y monografica",
    "eventYear": "1995",
    "image": "https://calendario-cientifico-escolar.github.io/images/personajes/97.png"
}