{
    "lang": "gal",
    "year": 2021,
    "month": 4,
    "day": 7,
    "title": "7 de abril de 1995",
    "body": " Inauguraci\u00f3n da Domus da Coru\u00f1a, o primeiro museo interactivo de car\u00e1cter cient\u00edfico que trata o ser humano dun xeito global e monogr\u00e1fico",
    "eventYear": "1995",
    "image": "https://calendario-cientifico-escolar.github.io/images/personajes/97.png"
}