{
    "lang": "en",
    "year": 2021,
    "month": 5,
    "day": 13,
    "title": "May 13, 1857",
    "body": " Bacteriologist Ronald Ross was born. He discovered that malaria is transmitted by the Anopheles mosquito",
    "eventYear": "1857",
    "image": "https://calendario-cientifico-escolar.github.io/images/personajes/133.png"
}