{
    "lang": "en",
    "year": 2021,
    "month": 5,
    "day": 28,
    "title": "May 28, 1912",
    "body": " Astronomer Ruby Violet Payne-Scott was born. She studied the influence of the Earth's magnetic field and solar flares",
    "eventYear": "1912",
    "image": "https://calendario-cientifico-escolar.github.io/images/personajes/148.png"
}