{
    "lang": "en",
    "year": 2021,
    "month": 5,
    "day": 29,
    "title": "May 29, 1826",
    "body": " Tailor Ebenezer Butterick was born. Together with his wife, Ellen Augusta Pollard, they invented and commercialized modern sewing patterns. These patterns had graded series for multiple standard sizes",
    "eventYear": "1826",
    "image": "https://calendario-cientifico-escolar.github.io/images/personajes/149.png"
}