{
    "lang": "eus",
    "year": 2021,
    "month": 10,
    "day": 14,
    "title": "1865/10/14",
    "body": " Edith Rebecca Saunders genetista jaio zen. Zeregin garrantzitsu bat bete zuen Mendelen legearen berraurkikuntzan eta landareen genetika ulertzean",
    "eventYear": "1865",
    "image": "https://calendario-cientifico-escolar.github.io/images/personajes/287.png"
}