{
    "lang": "eus",
    "year": 2021,
    "month": 10,
    "day": 2,
    "title": "1846/10/2",
    "body": " Gaztelako telegrafia optikoko linea abian jarri zen, Madriletik Iruneraino. Jos\u00e9 Mar\u00eda Math\u00e9k asmatu zuen",
    "eventYear": "1846",
    "image": "https://calendario-cientifico-escolar.github.io/images/personajes/275.png"
}