{
    "lang": "eus",
    "year": 2021,
    "month": 10,
    "day": 21,
    "title": "1879/10/21",
    "body": " Thomas Edisonek bonbila elektrikoa aurkeztu zuen",
    "eventYear": "1879",
    "image": "https://calendario-cientifico-escolar.github.io/images/personajes/294.png"
}