{
    "lang": "eus",
    "year": 2021,
    "month": 10,
    "day": 26,
    "title": "1878/10/26",
    "body": " Sixto C\u00e1mara Tecedor matematikaria jaio zen. Asociaci\u00f3n Espa\u00f1ola para el Progreso de las Ciencias, Sociedad Matem\u00e1tica Espa\u00f1ola eta Laboratorio y Seminario Matem\u00e1tico de la Junta para la Ampliaci\u00f3n de Estudios erakundeen kofundatzailea izan zen",
    "eventYear": "1878",
    "image": "https://calendario-cientifico-escolar.github.io/images/personajes/299.png"
}