{
    "lang": "eus",
    "year": 2021,
    "month": 10,
    "day": 7,
    "title": "1948/10/7",
    "body": " Diane Ackerman naturalista eta idazlea jaio zen. Zientzia-zabalkundeko lanetan, poesia eta estilo xume bat uztartzen ditu, eta, horri esker, argitalpen-arrakasta handia lortu du",
    "eventYear": "1948",
    "image": "https://calendario-cientifico-escolar.github.io/images/personajes/280.png"
}