{
    "lang": "es",
    "year": 2021,
    "month": 5,
    "day": 23,
    "title": "23 de mayo de 1954",
    "body": " Naci\u00f3 el bi\u00f3logo Keith Campbell. Fue una persona clave del equipo que clon\u00f3 a la oveja Dolly en el Instituto Roslin de Edimburgo",
    "eventYear": "1954",
    "image": "https://calendario-cientifico-escolar.github.io/images/personajes/143.png"
}