{
    "lang": "es",
    "year": 2021,
    "month": 5,
    "day": 26,
    "title": "26 de mayo de 1872",
    "body": " Naci\u00f3 Trinidad Arroyo Villaverde. Fue la primera oftalm\u00f3loga espa\u00f1ola",
    "eventYear": "1872",
    "image": "https://calendario-cientifico-escolar.github.io/images/personajes/146.png"
}