{
    "lang": "es",
    "year": 2021,
    "month": 5,
    "day": 3,
    "title": "3 de mayo de 1910",
    "body": " Naci\u00f3 la arque\u00f3loga Anne Strachan Robertson. Es conocida por sus estudios del muro de Antonino y las monedas imperiales romanas",
    "eventYear": "1910",
    "image": "https://calendario-cientifico-escolar.github.io/images/personajes/123.png"
}