{
    "lang": "es",
    "year": 2021,
    "month": 5,
    "day": 4,
    "title": "4 de mayo de 1825",
    "body": " Naci\u00f3 el bi\u00f3logo Thomas Huxley. Fue el primero en sugerir que las aves evolucionaron a partir de los dinosaurios",
    "eventYear": "1825",
    "image": "https://calendario-cientifico-escolar.github.io/images/personajes/124.png"
}