{
    "lang": "eus",
    "year": 2021,
    "month": 9,
    "day": 18,
    "title": "1819/9/18",
    "body": " Jean Foucault fisikaria jaio zen. Giroskopioa asmatu zuen, baita Lurraren biraketa frogatzen duen pendulua ere",
    "eventYear": "1819",
    "image": "https://calendario-cientifico-escolar.github.io/images/personajes/261.png"
}