{
    "lang": "en",
    "year": 2021,
    "month": 10,
    "day": 10,
    "title": "October 10, 1966",
    "body": " Chemist Carolyn Bertozzi was born. She studied the role of carbohydrates in diseases such as cancer, arthritis, or tuberculosis",
    "eventYear": "1966",
    "image": "https://calendario-cientifico-escolar.github.io/images/personajes/283.png"
}