{
    "lang": "gal",
    "year": 2021,
    "month": 10,
    "day": 14,
    "title": "14 de outubro de 1865",
    "body": " Naceu a xenetista Edith Rebecca Saunders. Xogou un papel importante no redescubrimento das leis da herdanza mendeliana e a comprensi\u00f3n da xen\u00e9tica das plantas",
    "eventYear": "1865",
    "image": "https://calendario-cientifico-escolar.github.io/images/personajes/287.png"
}