{
    "lang": "arag",
    "year": 2021,
    "month": 10,
    "day": 18,
    "title": "18 d'octubre de 1799",
    "body": " Naixe lo quimico Christian Schoenbein. Va descubrir la nitrocelulosa y va posar nombre a l'ozono",
    "eventYear": "1799",
    "image": "https://calendario-cientifico-escolar.github.io/images/personajes/291.png"
}