{
    "lang": "en",
    "year": 2021,
    "month": 10,
    "day": 18,
    "title": "October 18, 1799",
    "body": " Chemist Christian Schoenbein was born. He discovered nitrocellulose and named ozone",
    "eventYear": "1799",
    "image": "https://calendario-cientifico-escolar.github.io/images/personajes/291.png"
}