{
    "lang": "eus",
    "year": 2021,
    "month": 10,
    "day": 19,
    "title": "1924/10/19",
    "body": " Rosemary Bamforth patologoa jaio zen. Itsasontzietako langileen minbiziagatiko heriotzaren eta amiantoarekiko esposizioaren arteko lotura ezarri zuen",
    "eventYear": "1924",
    "image": "https://calendario-cientifico-escolar.github.io/images/personajes/292.png"
}