{
    "lang": "arag",
    "year": 2021,
    "month": 10,
    "day": 20,
    "title": "20 d'octubre de 1850",
    "body": " Naixe la naturalista Alice Blanche Balfour. Va treballar en o campo d'a entomoloch\u00eda y va estar pionera en chenetica. Va estudiar c\u00f3mo s'hereda lo patr\u00f3n de rayas d'as zebras",
    "eventYear": "1850",
    "image": "https://calendario-cientifico-escolar.github.io/images/personajes/293.png"
}