{
    "lang": "en",
    "year": 2021,
    "month": 10,
    "day": 22,
    "title": "October 22, 1949",
    "body": " Physician Rafael Matesanz was born. In 1989 he founded the National Transplant Organization (ONT), which established the protocols responsible for Spain being the world leader in transplants",
    "eventYear": "1949",
    "image": "https://calendario-cientifico-escolar.github.io/images/personajes/295.png"
}