{
    "lang": "gal",
    "year": 2021,
    "month": 10,
    "day": 25,
    "title": "25 de outubro de 1906",
    "body": " Santiago Ram\u00f3n y Cajal recibiu a notificaci\u00f3n de que ga\u00f1ara o Premio Nobel de Medicina. Ao parecer, a s\u00faa primeira reacci\u00f3n foi comentar que se trataba dunha broma dos estudantes. Ao d\u00eda seguinte leuno nos xornais",
    "eventYear": "1906",
    "image": "https://calendario-cientifico-escolar.github.io/images/personajes/298.png"
}