{
    "lang": "eus",
    "year": 2021,
    "month": 10,
    "day": 27,
    "title": "1904/10/27",
    "body": " Philip Downingek, oraindik erabiltzen dugun posta-kutxa asmatu zuen",
    "eventYear": "1904",
    "image": "https://calendario-cientifico-escolar.github.io/images/personajes/300.png"
}