{
    "lang": "en",
    "year": 2021,
    "month": 10,
    "day": 3,
    "title": "October 3, 1946",
    "body": " Chemist and crystallographer Rosalind Franklin published her Ph.D. on coal chemistry. This work was key to understanding the molecular structure of DNA",
    "eventYear": "1946",
    "image": "https://calendario-cientifico-escolar.github.io/images/personajes/276.png"
}