{
    "lang": "arag",
    "year": 2021,
    "month": 10,
    "day": 6,
    "title": "6 d'octubre de 1897",
    "body": " Naixe la bioquimica Florence Barbara Seibert. Va desenrollar un metodo pa purificar la prote\u00edna derivada d'a tuberculina (PPD-S). Esto va permitir la creaci\u00f3n d'un test fiable pa la tuberculosi",
    "eventYear": "1897",
    "image": "https://calendario-cientifico-escolar.github.io/images/personajes/279.png"
}