{
    "lang": "en",
    "year": 2021,
    "month": 10,
    "day": 6,
    "title": "October 6, 1897",
    "body": " Biochemist Florence Barbara Seibert was born. She developed a method to purify tuberculin-derived protein (PPD-S). This allowed the creation of a reliable test for tuberculosis",
    "eventYear": "1897",
    "image": "https://calendario-cientifico-escolar.github.io/images/personajes/279.png"
}