{
    "lang": "es",
    "year": 2021,
    "month": 10,
    "day": 7,
    "title": "7 de octubre de 1948",
    "body": " Naci\u00f3 la naturalista y escritora Diane Ackerman. Sus obras de divulgaci\u00f3n cient\u00edfica unen la poes\u00eda y un estilo sencillo, lo que le ha potenciado un gran \u00e9xito editorial",
    "eventYear": "1948",
    "image": "https://calendario-cientifico-escolar.github.io/images/personajes/280.png"
}