{
    "lang": "en",
    "year": 2021,
    "month": 10,
    "day": 9,
    "title": "October 9, 1902",
    "body": " The international scientific community recognized the authenticity of the Palaeolithic art in the Altamira cave. These paintings were discovered by the child Mar\u00eda Sanz de Sautuola when she was visiting the cave in the company of her father Marcelino",
    "eventYear": "1902",
    "image": "https://calendario-cientifico-escolar.github.io/images/personajes/282.png"
}