{
    "lang": "arag",
    "year": 2021,
    "month": 9,
    "day": 11,
    "title": "11 de setiembre de 1942",
    "body": " Naixe la economista y historiadora economica Deirdre McCloskey. Las suyas investigacions incluyen lo estudio d'os orichens d'o mundo moderno, lo mal uso d'a significaci\u00f3n estatistica en a econom\u00eda y atras sciencias, y lo estudio d'o capitalismo",
    "eventYear": "1942",
    "image": "https://calendario-cientifico-escolar.github.io/images/personajes/254.png"
}