{
    "lang": "arag",
    "year": 2021,
    "month": 3,
    "day": 12,
    "title": "12 de marzo de 2015",
    "body": " Un nuevo tractamiento d'a malot\u00eda d'Alzheimer aconsigue eliminar las placas d'amiloide en o 75% d'os casos (en ratos)",
    "eventYear": "2015",
    "image": "https://calendario-cientifico-escolar.github.io/images/personajes/71.png"
}