{
    "lang": "es",
    "year": 2021,
    "month": 3,
    "day": 13,
    "title": "13 de marzo de 1988",
    "body": " Se inaugur\u00f3 el t\u00fanel Seikan entre las ciudades de Aomori y Hakodate (Jap\u00f3n). Es el t\u00fanel submarino m\u00e1s largo del mundo",
    "eventYear": "1988",
    "image": "https://calendario-cientifico-escolar.github.io/images/personajes/72.png"
}