{
    "lang": "en",
    "year": 2021,
    "month": 3,
    "day": 17,
    "title": "March 17, 1963",
    "body": " Mar\u00eda Elisa \u00c1lvarez Obaya carried out the analyses that uncovered the Methanol poisoning case. From her modest pharmacy in Lanzarote, Mar\u00eda Elisa demonstrated that a series of strange deaths were attributed to the consumption of liquors adulterated with methanol",
    "eventYear": "1963",
    "image": "https://calendario-cientifico-escolar.github.io/images/personajes/76.png"
}