{
    "lang": "eus",
    "year": 2021,
    "month": 3,
    "day": 19,
    "title": "2019/3/19",
    "body": " CSICen parte-hartzea izan zuen nazioarteko azterlan batek frogatu zuenez, ozeanoek xurgatzen dute giza jarduerak sortutako CO2aren % 31",
    "eventYear": "2019",
    "image": "https://calendario-cientifico-escolar.github.io/images/personajes/78.png"
}