{
    "lang": "astu",
    "year": 2021,
    "month": 3,
    "day": 21,
    "title": "21 de marzu de 1866",
    "body": " Naci\u00f3 l\u2019astr\u00f3noma Antonia Maury. Trabay\u00f3 nel Harvard College Observatory y public\u00f3 un importante cat\u00e1logu d\u2019espectros estelares",
    "eventYear": "1866",
    "image": "https://calendario-cientifico-escolar.github.io/images/personajes/80.png"
}