{
    "lang": "arag",
    "year": 2021,
    "month": 3,
    "day": 21,
    "title": "21 de marzo de 1866",
    "body": " Naixe l'astronoma Antonia Maury. Treball\u00f3 en o Harvard College Observatory y public\u00f3 un important catalogo d'espectros estelars",
    "eventYear": "1866",
    "image": "https://calendario-cientifico-escolar.github.io/images/personajes/80.png"
}