{
    "lang": "cat",
    "year": 2021,
    "month": 3,
    "day": 21,
    "title": "21 de mar\u00e7 de 1866",
    "body": " Va n\u00e9ixer l'astr\u00f2noma Antonia Maury. Va treballar al Harvard College Observatory i va publicar un important cat\u00e0leg d'espectres estel\u00b7lars",
    "eventYear": "1866",
    "image": "https://calendario-cientifico-escolar.github.io/images/personajes/80.png"
}