{
    "lang": "astu",
    "year": 2021,
    "month": 3,
    "day": 23,
    "title": "23 de marzu de 2005",
    "body": " Jos\u00e9 Luis Carrascosa y el so equipu del Centru Nacional de Bioteunolox\u00eda describieron per primer vegada la estructura del virus de la viruela",
    "eventYear": "2005",
    "image": "https://calendario-cientifico-escolar.github.io/images/personajes/82.png"
}