{
    "lang": "astu",
    "year": 2021,
    "month": 3,
    "day": 24,
    "title": "24 de marzu de 1882",
    "body": " Robert Koch anunci\u00f3\u2019l descubrimientu de la bacteria responsable de la tuberculosis. Yera la Mycobacterium tuberculosis (bacilu de Koch)",
    "eventYear": "1882",
    "image": "https://calendario-cientifico-escolar.github.io/images/personajes/83.png"
}