{
    "lang": "es",
    "year": 2021,
    "month": 3,
    "day": 24,
    "title": "24 de marzo de 1882",
    "body": " Robert Koch anunci\u00f3 el descubrimiento de la bacteria responsable de la tuberculosis. Era la Mycobacterium tuberculosis (bacilo de Koch)",
    "eventYear": "1882",
    "image": "https://calendario-cientifico-escolar.github.io/images/personajes/83.png"
}