{
    "lang": "gal",
    "year": 2021,
    "month": 3,
    "day": 24,
    "title": "24 de marzo de 1882",
    "body": " Robert Koch anunciou a descuberta da bacteria responsable da tuberculose. Era a Mycobacterium tuberculosis (bacilo de Koch)",
    "eventYear": "1882",
    "image": "https://calendario-cientifico-escolar.github.io/images/personajes/83.png"
}