{
    "lang": "en",
    "year": 2021,
    "month": 3,
    "day": 25,
    "title": "March 25, 1914",
    "body": " Agronomist Norman Borlaug was born. Nicknamed the Father of the Green Revolution, he received the Nobel Peace Prize for his efforts to introduce hybrid seeds into agricultural production in Mexico, Pakistan, and India. This increased agricultural productivity and saved millions of human lives",
    "eventYear": "1914",
    "image": "https://calendario-cientifico-escolar.github.io/images/personajes/84.png"
}