{
    "lang": "es",
    "year": 2021,
    "month": 3,
    "day": 26,
    "title": "26 de marzo de 1953",
    "body": " El investigador Jonas Salk anunci\u00f3 el descubrimiento de la vacuna contra la poliomielitis. Gracias a la vacunaci\u00f3n, esta enfermedad infecciosa, conocida como par\u00e1lisis infantil, ha sido erradicada de Europa, Am\u00e9rica, Ocean\u00eda y \u00c1frica",
    "eventYear": "1953",
    "image": "https://calendario-cientifico-escolar.github.io/images/personajes/85.png"
}