{
    "lang": "eus",
    "year": 2021,
    "month": 3,
    "day": 31,
    "title": "1596/3/31",
    "body": " Ren\u00e9 Descartes filosofo eta matematikari frantziar ospetsua jaio zen. \"Pentsatzen dut; beraz, banaiz\" kontzeptua sortu zuen",
    "eventYear": "1596",
    "image": "https://calendario-cientifico-escolar.github.io/images/personajes/90.png"
}