{
    "lang": "astu",
    "year": 2021,
    "month": 3,
    "day": 5,
    "title": "5 de marzu de 2013",
    "body": " El Proyeutu Human Connectome asoley\u00f3 im\u00e1xenes bien detallaes de cerebros humanos. Estes im\u00e1xenes dexaron estudiar la complexid\u00e1 de les estructures cerebrales ya identificar causes de los trestornos neuronales",
    "eventYear": "2013",
    "image": "https://calendario-cientifico-escolar.github.io/images/personajes/64.png"
}