{
    "lang": "eus",
    "year": 2021,
    "month": 3,
    "day": 5,
    "title": "2013/3/5",
    "body": " Human Connectome Proiektuak, giza garunen oso irudi zehatzak argitaratu zituen. Irudi horiei esker, garun-egituren konplexutasuna aztertzeko eta neurona-nahasmenduen arrazoiak identifikatzeko aukera izan zen",
    "eventYear": "2013",
    "image": "https://calendario-cientifico-escolar.github.io/images/personajes/64.png"
}