{
    "lang": "cat",
    "year": 2021,
    "month": 3,
    "day": 8,
    "title": "8 de mar\u00e7 de 1839",
    "body": " Va n\u00e9ixer Josephine Cochrane. Va ser la inventora de la primera m\u00e0quina rentavaixelles que va tenir \u00e8xit",
    "eventYear": "1839",
    "image": "https://calendario-cientifico-escolar.github.io/images/personajes/67.png"
}