{
    "lang": "gal",
    "year": 2021,
    "month": 12,
    "day": 17,
    "title": "17 de decembro de 2014",
    "body": " Un estudo do IGME e as universidades de Barcelona e Harvard demostrou a existencia de gambas de terra en \u00c1raba. Estes crust\u00e1ceos viviron hai 105 mill\u00f3ns de anos e ficaron conservados en \u00e1mbar",
    "eventYear": "2014",
    "image": "https://calendario-cientifico-escolar.github.io/images/personajes/351.png"
}