{
    "lang": "gal",
    "year": 2021,
    "month": 6,
    "day": 10,
    "title": "10 de xu\u00f1o de 1948",
    "body": " Efectuouse a primeira demostraci\u00f3n da televisi\u00f3n en Espa\u00f1a. Foi durante a Feira Internacional de Mostras de Barcelona",
    "eventYear": "1948",
    "image": "https://calendario-cientifico-escolar.github.io/images/personajes/161.png"
}