{
    "lang": "astu",
    "year": 2021,
    "month": 6,
    "day": 12,
    "title": "12 de xunu de 1985",
    "body": " Naci\u00f3 l\u2019inxenieru de software Blake Ross. Ye conoc\u00edu por trabayar na creaci\u00f3n de los navegadores Mozilla",
    "eventYear": "1985",
    "image": "https://calendario-cientifico-escolar.github.io/images/personajes/163.png"
}