{
    "lang": "en",
    "year": 2021,
    "month": 6,
    "day": 14,
    "title": "June 14, 1880",
    "body": " Neuroscientist Nicol\u00e1s Ach\u00facarro was born. He was one of Ram\u00f3n y Cajal's disciples. He specialized in the study of glial cells",
    "eventYear": "1880",
    "image": "https://calendario-cientifico-escolar.github.io/images/personajes/165.png"
}