{
    "lang": "es",
    "year": 2021,
    "month": 6,
    "day": 14,
    "title": "14 de junio de 1880",
    "body": " Naci\u00f3 el neurocient\u00edfico Nicol\u00e1s Ach\u00facarro. Fue uno de los disc\u00edpulos de Ram\u00f3n y Cajal y se especializ\u00f3 en el estudio de las c\u00e9lulas gliales",
    "eventYear": "1880",
    "image": "https://calendario-cientifico-escolar.github.io/images/personajes/165.png"
}