{
    "lang": "es",
    "year": 2021,
    "month": 6,
    "day": 18,
    "title": "18 de junio de 1466",
    "body": " Naci\u00f3 el impresor Ottaviano Petrucci. Invent\u00f3 el sistema de impresi\u00f3n de m\u00fasica por medio de tipos m\u00f3viles. Con este sistema, en 1501 imprimi\u00f3 la colecci\u00f3n de canciones Harmonice Musices Odhecaton. Esta fue la primera edici\u00f3n de m\u00fasica impresa de la historia",
    "eventYear": "1466",
    "image": "https://calendario-cientifico-escolar.github.io/images/personajes/169.png"
}