{
    "lang": "cat",
    "year": 2021,
    "month": 6,
    "day": 19,
    "title": "19 de juny de 1903",
    "body": " Va n\u00e9ixer la bioqu\u00edmica Rebeca Gerschman. Va postular la teoria Gerschman sobre la toxicitat de l'oxigen mitjan\u00e7ant radicals lliures i va revolucionar l'ambient cient\u00edfic de l'\u00e8poca",
    "eventYear": "1903",
    "image": "https://calendario-cientifico-escolar.github.io/images/personajes/170.png"
}