{
    "lang": "arag",
    "year": 2021,
    "month": 6,
    "day": 1,
    "title": "1 de chunyo de 1974",
    "body": " La revista Emergency Medicine publica la maniobra de Heimlich. Esta operaci\u00f3n permite desbozar las v\u00edas aerias obstruyidas per un obchecto extranyo",
    "eventYear": "1974",
    "image": "https://calendario-cientifico-escolar.github.io/images/personajes/152.png"
}