{
    "lang": "es",
    "year": 2021,
    "month": 6,
    "day": 23,
    "title": "23 de junio de 1912",
    "body": " Naci\u00f3 el matem\u00e1tico, l\u00f3gico y criptoanalista Alan Turing. Fue pionero de la inform\u00e1tica moderna",
    "eventYear": "1912",
    "image": "https://calendario-cientifico-escolar.github.io/images/personajes/174.png"
}