{
    "lang": "gal",
    "year": 2021,
    "month": 6,
    "day": 29,
    "title": "29 de xu\u00f1o de 1954",
    "body": " Stanley Cohen, Rita Levi-Montalcini e Viktor Hamburger publicaron o descubrimento do primeiro factor de crecemento nervioso. Os dous primeiros recibiron o Premio Nobel de Fisiolox\u00eda ou Medicina en 1986",
    "eventYear": "1954",
    "image": "https://calendario-cientifico-escolar.github.io/images/personajes/180.png"
}