{
    "lang": "astu",
    "year": 2021,
    "month": 6,
    "day": 4,
    "title": "4 de xunu de 1927",
    "body": " Tuvo llugar el primer vuelu comercial de pasaxeros tresatl\u00e1nticu. El viaxe f\u00edxose a bordu d\u2019un Wright-Bellanca WB-2, dende Los Estaos Xun\u00edos hasta Alema\u00f1a",
    "eventYear": "1927",
    "image": "https://calendario-cientifico-escolar.github.io/images/personajes/155.png"
}