{
    "lang": "es",
    "year": 2021,
    "month": 6,
    "day": 4,
    "title": "4 de junio de 1927",
    "body": " Tuvo lugar el primer vuelo comercial de pasajeros transatl\u00e1ntico. El viaje se produjo a bordo de un Wright-Bellanca WB-2, desde Estados Unidos hasta Alemania",
    "eventYear": "1927",
    "image": "https://calendario-cientifico-escolar.github.io/images/personajes/155.png"
}