{
    "lang": "gal",
    "year": 2021,
    "month": 6,
    "day": 5,
    "title": "5 de xu\u00f1o de 2002",
    "body": " Presentouse oficialmente a AMIT (Asociaci\u00f3n de Mulleres Investigadoras e Tecn\u00f3logas). Esta asociaci\u00f3n promove o acceso igualitario das mulleres \u00e1 actividade investigadora en todas as ramas do co\u00f1ecemento e no sector tecnol\u00f3xico",
    "eventYear": "2002",
    "image": "https://calendario-cientifico-escolar.github.io/images/personajes/156.png"
}