{
    "lang": "eus",
    "year": 2021,
    "month": 6,
    "day": 7,
    "title": "1886/6/7",
    "body": " Henri Coand\u0103 ingeniaria jaio zen. Abiazioaren aitzindaria izan zen, eta erreakzio-motor batek abiarazitako lehen hegazkina eraiki zuen",
    "eventYear": "1886",
    "image": "https://calendario-cientifico-escolar.github.io/images/personajes/158.png"
}