{
    "lang": "en",
    "year": 2021,
    "month": 4,
    "day": 2,
    "title": "April 2, 1618",
    "body": " Physicist Francesco Grimaldi was born. He discovered the light diffraction",
    "eventYear": "1618",
    "image": "https://calendario-cientifico-escolar.github.io/images/personajes/92.png"
}