{
    "lang": "astu",
    "year": 2021,
    "month": 4,
    "day": 2,
    "title": "2 d\u2019abril de 1618",
    "body": " Naci\u00f3\u2019l f\u00edsicu Francesco Grimaldi. Descubri\u00f3 la difracci\u00f3n de la lluz",
    "eventYear": "1618",
    "image": "https://calendario-cientifico-escolar.github.io/images/personajes/92.png"
}