{
    "lang": "astu",
    "year": 2021,
    "month": 4,
    "day": 29,
    "title": "29 d\u2019abril de 1894",
    "body": " Naci\u00f3 la f\u00edsica Marietta Blau. Foi pionera nel rexistru ya identificaci\u00f3n de part\u00edcules at\u00f3miques per aciu de plaques d\u2019emulsiones fotogr\u00e1fiques. El so trabayu contribuy\u00f3 a entender meyor les reaiciones nucleares",
    "eventYear": "1894",
    "image": "https://calendario-cientifico-escolar.github.io/images/personajes/119.png"
}