{
    "lang": "cat",
    "year": 2021,
    "month": 1,
    "day": 4,
    "title": "4 de gener de 1963",
    "body": " Va n\u00e9ixer la neurocient\u00edfica May-Britt Moser. Va rebre un Premi Nobel per la seva investigaci\u00f3 sobre les c\u00e8l\u00b7lules de xarxa situades al cervell",
    "eventYear": "1963",
    "image": "https://calendario-cientifico-escolar.github.io/images/personajes/4.png"
}