{
    "lang": "eus",
    "year": 2021,
    "month": 1,
    "day": 25,
    "title": "1235/1/25",
    "body": " Litekeena da Ram\u00f3n Llul urte hartan jaio izana. \u201cEl \u00e1rbol de la ciencia\u201d izeneko lana idatzi zuen, Espainian naturari buruz idatzitako lehen tratatu zientifikoa",
    "eventYear": "1235",
    "image": "https://calendario-cientifico-escolar.github.io/images/personajes/25.png"
}