{
    "lang": "eus",
    "year": 2021,
    "month": 1,
    "day": 27,
    "title": "1876/1/27",
    "body": " Elisha Gray ingeniari elektrikoak \"musika-telegrafoaren\" patentea eskatu zuen. Lehen musika-tresna elektrikoetako bat izan zen",
    "eventYear": "1876",
    "image": "https://calendario-cientifico-escolar.github.io/images/personajes/27.png"
}