{
    "lang": "arag",
    "year": 2021,
    "month": 6,
    "day": 14,
    "title": "14 de chunyo de 1880",
    "body": " Naixe lo neuroscientifico Nicol\u00e1s Ach\u00facarro. Va estar un d'os disciplos de Ram\u00f3n y Cajal y se va especializar en o estudio d'as celulas glials",
    "eventYear": "1880",
    "image": "https://calendario-cientifico-escolar.github.io/images/personajes/165.png"
}