{
    "lang": "arag",
    "year": 2021,
    "month": 6,
    "day": 24,
    "title": "24 de chunyo de 1400",
    "body": " Naixe Johannes Gutenberg. Va inventar la imprenta con tipos mobils moderna",
    "eventYear": "1400",
    "image": "https://calendario-cientifico-escolar.github.io/images/personajes/175.png"
}