{
    "lang": "arag",
    "year": 2021,
    "month": 12,
    "day": 21,
    "title": "21 d'aviento de 1773",
    "body": " Naixe lo botanico Robert Brown. Descubri\u00f3 que las minusclas particlas suspendidas en os liquidos son en movimiento. Esto se conoixe como movimiento browniano",
    "eventYear": "1773",
    "image": "https://calendario-cientifico-escolar.github.io/images/personajes/355.png"
}