{
    "lang": "arag",
    "year": 2021,
    "month": 12,
    "day": 4,
    "title": "4 d'aviento de 1844",
    "body": " Naixe Augusto Arcim\u00eds. Va estar lo primer meteorologo profesional espanyol y lo primer director de l'Instituto Central Meteorolochico (agora Achencia Estatal de Meteoroloch\u00eda)",
    "eventYear": "1844",
    "image": "https://calendario-cientifico-escolar.github.io/images/personajes/338.png"
}