{
    "lang": "arag",
    "year": 2021,
    "month": 12,
    "day": 9,
    "title": "9 d'aviento de 1979",
    "body": " S'erradica per primer vegada una malot\u00eda. Ye la picueta y s'aconsigui\u00f3 gracias a la vacunaci\u00f3n",
    "eventYear": "1979",
    "image": "https://calendario-cientifico-escolar.github.io/images/personajes/343.png"
}