{
    "lang": "es",
    "year": 2021,
    "month": 2,
    "day": 12,
    "title": "12 de febrero de 1809",
    "body": " Naci\u00f3 Charles Darwin, el famoso naturalista que elabor\u00f3 la teor\u00eda de la evoluci\u00f3n mediante selecci\u00f3n natural",
    "eventYear": "1809",
    "image": "https://calendario-cientifico-escolar.github.io/images/personajes/43.png"
}