{
    "lang": "es",
    "year": 2021,
    "month": 2,
    "day": 17,
    "title": "17 de febrero de 1874",
    "body": " Naci\u00f3 la ge\u00f3loga Ida Helen Ogilvie. Descubri\u00f3 propiedades de la lava y los efectos de la aridez sobre la erosi\u00f3n de los suelos",
    "eventYear": "1874",
    "image": "https://calendario-cientifico-escolar.github.io/images/personajes/48.png"
}