{
    "lang": "es",
    "year": 2021,
    "month": 2,
    "day": 24,
    "title": "24 de febrero de 1938",
    "body": " La empresa DuPont comenz\u00f3 la fabricaci\u00f3n del primer producto de nailon destinado a la venta: un cepillo de dientes. Hasta entonces se fabricaban principalmente con pelo del cuello de los cerdos",
    "eventYear": "1938",
    "image": "https://calendario-cientifico-escolar.github.io/images/personajes/55.png"
}